<?xml version="1.0" encoding="UTF-8" standalone="no"?>
<!-- Created with Inkscape (http://www.inkscape.org/) -->

<svg
   width="210mm"
   height="65mm"
   viewBox="0 0 210 65"
   version="1.1"
   id="svg5"
   inkscape:version="1.1.1 (3bf5ae0d25, 2021-09-20)"
   sodipodi:docname="est_e_kozet_san.svg"
   xmlns:inkscape="http://www.inkscape.org/namespaces/inkscape"
   xmlns:sodipodi="http://sodipodi.sourceforge.net/DTD/sodipodi-0.dtd"
   xmlns="http://www.w3.org/2000/svg"
   xmlns:svg="http://www.w3.org/2000/svg">
  <sodipodi:namedview
     id="namedview7"
     pagecolor="#ffffff"
     bordercolor="#666666"
     borderopacity="1.0"
     inkscape:pageshadow="2"
     inkscape:pageopacity="0.0"
     inkscape:pagecheckerboard="0"
     inkscape:document-units="mm"
     showgrid="false"
     inkscape:zoom="5.2614285"
     inkscape:cx="614.09178"
     inkscape:cy="180.84442"
     inkscape:window-width="1920"
     inkscape:window-height="1024"
     inkscape:window-x="0"
     inkscape:window-y="0"
     inkscape:window-maximized="1"
     inkscape:current-layer="layer5" />
  <defs
     id="defs2">
    <marker
       style="overflow:visible"
       id="marker238995"
       refX="0"
       refY="0"
       orient="auto"
       inkscape:stockid="Arrow1Mend"
       inkscape:isstock="true">
      <path
         transform="matrix(-0.4,0,0,-0.4,-4,0)"
         style="fill:context-stroke;fill-rule:evenodd;stroke:context-stroke;stroke-width:1pt"
         d="M 0,0 5,-5 -12.5,0 5,5 Z"
         id="path238993" />
    </marker>
    <marker
       style="overflow:visible"
       id="marker21911"
       refX="0"
       refY="0"
       orient="auto"
       inkscape:stockid="Arrow1Mend"
       inkscape:isstock="true">
      <path
         transform="matrix(-0.4,0,0,-0.4,-4,0)"
         style="fill:context-stroke;fill-rule:evenodd;stroke:context-stroke;stroke-width:1pt"
         d="M 0,0 5,-5 -12.5,0 5,5 Z"
         id="path21909" />
    </marker>
    <marker
       style="overflow:visible"
       id="marker21782"
       refX="0"
       refY="0"
       orient="auto"
       inkscape:stockid="Arrow1Mend"
       inkscape:isstock="true">
      <path
         transform="matrix(-0.4,0,0,-0.4,-4,0)"
         style="fill:context-stroke;fill-rule:evenodd;stroke:context-stroke;stroke-width:1pt"
         d="M 0,0 5,-5 -12.5,0 5,5 Z"
         id="path21780" />
    </marker>
    <marker
       style="overflow:visible"
       id="Arrow1Mend"
       refX="0"
       refY="0"
       orient="auto"
       inkscape:stockid="Arrow1Mend"
       inkscape:isstock="true">
      <path
         transform="matrix(-0.4,0,0,-0.4,-4,0)"
         style="fill:context-stroke;fill-rule:evenodd;stroke:context-stroke;stroke-width:1pt"
         d="M 0,0 5,-5 -12.5,0 5,5 Z"
         id="path21487" />
    </marker>
  </defs>
  <g
     inkscape:groupmode="layer"
     id="layer5"
     inkscape:label="Layer 6"
     sodipodi:insensitive="true">
    <rect
       style="fill:#ffffff;fill-opacity:1;stroke:none;stroke-width:3.53227;stroke-miterlimit:4;stroke-dasharray:none;stroke-dashoffset:0;stroke-opacity:1"
       id="rect13451"
       width="210"
       height="65"
       x="0"
       y="0" />
  </g>
  <g
     inkscape:label="Layer 1"
     inkscape:groupmode="layer"
     id="layer1"
     sodipodi:insensitive="true">
    <g
       id="g4788">
      <path
         style="fill:none;fill-opacity:1;stroke:#b1f0ee;stroke-width:0.5;stroke-miterlimit:4;stroke-dasharray:none;stroke-opacity:1"
         d="M 11.895657,18.778496 H 193.50069"
         id="path899" />
      <path
         style="fill:none;fill-opacity:1;stroke:#b1f0ee;stroke-width:0.5;stroke-miterlimit:4;stroke-dasharray:2, 0.5;stroke-dashoffset:0;stroke-opacity:1"
         d="M 11.895657,28.183713 H 193.5007"
         id="path899-0" />
      <path
         style="fill:none;fill-opacity:1;stroke:#f6b7ab;stroke-width:0.5;stroke-miterlimit:4;stroke-dasharray:none;stroke-opacity:1"
         d="M 11.895657,38.130206 H 193.50069"
         id="path899-0-8" />
      <path
         style="fill:none;fill-opacity:1;stroke:#b1f0ee;stroke-width:0.5;stroke-miterlimit:4;stroke-dasharray:none;stroke-dashoffset:0;stroke-opacity:1"
         d="M 11.895657,47.785355 H 193.5007"
         id="path899-0-5" />
    </g>
  </g>
  <g
     inkscape:groupmode="layer"
     id="layer2"
     inkscape:label="Layer 2">
    <path
       style="fill:#000000;fill-opacity:1;stroke:none;stroke-width:0.7;stroke-miterlimit:4;stroke-dasharray:none;stroke-dashoffset:0;stroke-opacity:1"
       id="path14422"
       d="m 184.77524,23.766781 c 0.072,0.30556 0.0897,0.621954 0.11336,0.934219 0.0399,0.53214 0.0496,1.065917 0.0588,1.599285 0.0108,0.368773 0.006,0.737306 -0.003,1.105987 -0.24805,1.143345 -0.84281,1.031352 1.02049,-0.03439 0.0254,-0.01458 -0.0482,0.03337 -0.0736,0.04802 -0.1033,0.05965 -0.21103,0.08778 -0.32558,0.117808 -0.48713,0.102883 -0.98982,0.08213 -1.48446,0.0705 -0.73909,-0.03104 -1.47565,-0.101973 -2.21322,-0.156303 -0.71645,-0.04955 -1.4297,-0.135149 -2.14396,-0.208375 -0.50638,-0.05327 -1.0139,-0.09421 -1.52173,-0.130606 -0.33718,-0.02244 -0.67424,-0.04858 -1.01221,-0.05425 -1.52581,0.07653 -1.91066,0.721894 -2.10058,1.765289 -0.10101,0.698135 -0.12506,1.403771 -0.13351,2.108126 0.002,0.932423 0.0336,1.864471 0.0525,2.796646 0.0216,0.984768 0.0311,1.969772 0.0393,2.954734 0.0181,0.987676 5.3e-4,1.975395 -0.0146,2.962976 -0.01,0.992201 -0.0228,1.984364 -0.0351,2.976539 -0.008,0.81906 -0.0214,1.638054 -0.0288,2.457122 -0.003,0.64353 -0.01,1.287023 -0.0186,1.930498 -0.001,0.08371 -0.002,0.167433 -0.004,0.251123 -0.003,0.112681 0.0133,0.257414 -0.061,0.359032 -0.0208,0.02852 -0.11925,0.07583 -0.0896,0.05661 1.52256,-0.987065 2.04865,-1.153475 1.35678,-0.918853 -0.53011,-0.0561 -1.0286,-0.288089 -1.52462,-0.472802 -0.72855,-0.282475 -1.47175,-0.52355 -2.21806,-0.753915 -0.73404,-0.232219 -1.47573,-0.438422 -2.21843,-0.640723 -0.61898,-0.166071 -1.24053,-0.322259 -1.85962,-0.487981 -0.31051,-0.08234 -0.61882,-0.17236 -0.92656,-0.264409 -0.16866,-0.210637 -1.65809,0.981975 -1.48943,1.192612 v 0 c 0.31005,0.09185 0.62165,0.178043 0.93112,0.271878 0.62101,0.172932 1.24726,0.323313 1.87304,0.477957 0.74232,0.200535 1.48743,0.392273 2.22172,0.620992 0.73462,0.228087 1.46824,0.462693 2.18348,0.746708 0.51723,0.210931 1.03472,0.424359 1.56583,0.598162 0.85388,0.246644 0.3078,0.146497 1.96891,-0.981575 0.0476,-0.0323 0.0284,-0.111692 0.036,-0.168691 0.0292,-0.220805 0.002,-0.44454 0.008,-0.665993 -0.006,-0.639599 -0.008,-1.279205 -0.006,-1.91883 2.2e-4,-0.814424 -0.004,-1.628854 7.9e-4,-2.443271 0.004,-0.990513 0.0105,-1.981054 0.029,-2.971419 0.013,-0.990848 0.0306,-1.981742 0.0143,-2.972686 -0.0115,-0.985917 -0.0255,-1.971786 -0.0417,-2.957634 -0.0179,-0.930426 -0.0463,-1.861479 -0.0234,-2.791989 0.0237,-0.685962 0.0493,-1.37984 0.21298,-2.049373 0.0531,-0.161369 0.0959,-0.347625 0.23629,-0.460539 0.029,-0.02334 0.13139,-0.0703 0.0988,-0.05233 -2.05057,1.335061 -2.37587,0.77316 -0.47805,0.77752 0.51215,0.02656 1.02399,0.05897 1.535,0.102576 0.72248,0.06208 1.44359,0.13834 2.16612,0.199718 0.73535,0.05302 1.46912,0.123526 2.20416,0.180329 0.50015,0.02922 1.00262,0.05253 1.50336,0.02746 0.86968,-0.0912 1.53053,-0.414379 2.25472,-1.109855 0.14066,-0.13788 0.22275,-0.295341 0.25774,-0.491353 0.0545,-0.223649 0.0652,-0.454596 0.0647,-0.684188 -2.2e-4,-0.369596 -0.0154,-0.738746 -0.0301,-1.108013 -0.0201,-0.538941 -0.0392,-1.077913 -0.0574,-1.61692 -0.0198,-0.333566 -0.0476,-0.666338 -0.0831,-0.998611 -0.1238,-0.252848 -1.91171,0.622603 -1.7879,0.875451 z"
       sodipodi:nodetypes="cccccccccccccccccccccccccccccsscccccscccccccccscccccccccccccc" />
    <path
       style="fill:#000000;fill-opacity:1;stroke:none;stroke-width:0.7;stroke-miterlimit:4;stroke-dasharray:none;stroke-dashoffset:0;stroke-opacity:1"
       id="path14424"
       d="m 179.57342,31.571856 c -0.34319,0.175593 -0.68346,0.356766 -1.02127,0.542504 -1.06633,0.587655 -2.11656,1.203227 -3.15169,1.843656 -0.0805,0.0492 -0.16057,0.09921 -0.2416,0.14759 -0.19535,0.116663 -0.26078,0.150228 -0.45593,0.263192 -0.0714,0.04132 -0.28482,0.166526 -0.21343,0.125211 1.48903,-0.861734 1.84204,-1.048406 1.17585,-0.69071 -0.3597,0.186052 -0.7197,0.372528 -1.08832,0.540432 -0.38975,0.175202 -0.79616,0.309444 -1.19751,0.454988 -0.27312,0.102571 -0.54574,0.206116 -0.82141,0.301628 -0.19609,-0.191582 -1.55079,1.195017 -1.3547,1.386599 v 0 c 0.28176,-0.08927 0.56189,-0.183052 0.83494,-0.296809 0.39996,-0.150395 0.8048,-0.286565 1.20695,-0.430668 0.38003,-0.161578 0.75003,-0.341556 1.1175,-0.530162 0.99136,-0.520017 1.95448,-1.094168 2.90789,-1.680585 0.25427,-0.157036 0.50937,-0.311918 0.7675,-0.462561 0.0903,-0.0527 0.36191,-0.209608 0.27125,-0.157522 -1.55082,0.890931 -1.70523,0.976929 -1.04726,0.6061 0.31707,-0.173887 0.63336,-0.34893 0.96058,-0.502838 0.20648,0.191013 1.55714,-1.269032 1.35066,-1.460045 z" />
    <path
       style="fill:#000000;fill-opacity:1;stroke:none;stroke-width:0.7;stroke-miterlimit:4;stroke-dasharray:none;stroke-dashoffset:0;stroke-opacity:1"
       id="path14426"
       d="m 175.41794,24.757846 c -0.33408,0.01576 -0.66864,0.04944 -1.00238,0.07765 -0.39555,0.03171 -0.7917,0.05456 -1.18804,0.07363 -0.34299,0.01666 -0.68458,0.05387 -1.02693,0.08033 -0.3775,0.02725 -0.75584,0.03859 -1.13401,0.05162 -0.33734,0.02005 -0.67424,0.04651 -1.01159,0.0665 -0.19719,0.01065 -0.0999,0.0057 -0.29191,0.01493 -0.18727,-0.203924 -1.62923,1.120232 -1.44196,1.324156 v 0 c 0.19563,-0.0098 0.0965,-0.0047 0.29726,-0.01517 0.33955,-0.01918 0.67887,-0.04153 1.0177,-0.07121 0.37727,-0.0323 0.75669,-0.02731 1.13465,-0.05015 0.34164,-0.01701 0.68296,-0.04168 1.02258,-0.08344 0.40146,-0.02082 0.80281,-0.04398 1.2037,-0.07399 0.31431,-0.02169 0.63001,-0.04161 0.9432,-0.06429 0.18817,0.208982 1.6659,-1.121571 1.47773,-1.330553 z" />
    <path
       style="fill:#000000;fill-opacity:1;stroke:none;stroke-width:0.7;stroke-miterlimit:4;stroke-dasharray:none;stroke-dashoffset:0;stroke-opacity:1"
       id="path14442"
       d="m 165.06897,46.978149 c -0.0315,-0.447987 -0.0343,-0.897401 -0.0379,-1.34629 -0.009,-0.748626 -0.007,-1.497301 -0.008,-2.245963 -0.003,-0.767025 2.4e-4,-1.534039 0.003,-2.301058 0.007,-0.742005 -0.008,-1.483773 -0.0249,-2.225521 -0.017,-0.722207 -0.0317,-1.444472 -0.0435,-2.166782 -0.0126,-0.810725 -0.0224,-1.621496 -0.0264,-2.432312 -0.002,-0.825859 -0.008,-1.651682 -0.005,-2.477545 0.001,-0.645588 0.008,-1.291143 0.0148,-1.936691 0.0142,-0.402982 0.004,-0.804982 -0.0149,-1.207487 -0.0143,-0.304904 -0.0234,-0.610003 -0.0316,-0.91512 -0.005,-0.07698 0.0337,-0.785003 -0.23251,-0.673081 -0.61675,0.259265 -1.13315,0.711581 -1.69972,1.067371 -0.15899,0.436499 -0.37513,0.848117 -0.6023,1.252178 -0.33916,0.558411 -0.70817,1.098386 -1.08903,1.629047 -0.39926,0.561954 -0.81748,1.109686 -1.25265,1.644206 -0.44936,0.551296 -0.91932,1.083675 -1.40908,1.599181 -0.42269,0.436009 -0.84618,0.873249 -1.2936,1.284049 -0.31742,0.311031 -0.66947,0.579885 -1.02327,0.847074 -0.28921,0.202761 -0.57289,0.412933 -0.86991,0.604264 -0.28125,0.173683 -0.42635,0.429929 -0.50983,0.741391 -0.081,0.567918 -0.0895,1.144556 -0.10726,1.717366 -0.0177,0.729019 -0.0243,1.45824 -0.0353,2.187374 -0.008,0.729506 -0.0128,1.459037 -0.0193,2.188554 -0.001,0.696925 -0.005,1.39383 -0.0108,2.090732 0.009,0.567497 0.0243,1.134869 0.0362,1.702308 0.0176,0.229391 -0.0152,0.439433 -0.0821,0.656571 0.10036,0.25414 1.8974,-0.455504 1.79704,-0.709644 v 0 c 0.036,-0.246758 0.0608,-0.49167 0.0419,-0.741778 -0.0218,-0.56017 -0.0481,-1.120328 -0.0533,-1.680972 -0.002,-0.695518 -0.002,-1.391033 0.004,-2.086538 0.002,-0.728046 0.006,-1.456108 0.0158,-2.184099 0.007,-0.727998 0.0201,-1.456039 0.0505,-2.18349 0.0244,-0.537233 0.0156,-1.100531 0.20334,-1.610558 0.14257,-0.230023 0.34396,-0.381434 0.57395,-0.520795 0.28665,-0.203891 0.57312,-0.408377 0.85075,-0.624486 0.34911,-0.275029 0.68028,-0.570624 0.99687,-0.882687 0.42761,-0.425947 0.85289,-0.85426 1.26269,-1.297516 0.48496,-0.525399 0.9493,-1.06893 1.39843,-1.625304 0.43443,-0.543885 0.85291,-1.100079 1.25384,-1.669198 0.38076,-0.544401 0.753,-1.095843 1.08526,-1.671537 0.22683,-0.412877 0.41382,-0.849871 0.67105,-1.244005 -0.53413,0.306401 -1.02405,0.707803 -1.6024,0.919203 -0.17713,0.06474 -0.16576,-0.540581 -0.14675,-0.143127 0.002,0.03692 0.003,0.07386 0.005,0.110784 0.002,0.03964 0.004,0.07928 0.006,0.118922 0.0149,0.303885 0.0323,0.607648 0.047,0.911545 0.0177,0.393878 0.0264,0.787895 0.0294,1.182172 0.009,0.640157 0.0178,1.280319 0.0223,1.920528 0.007,0.825183 0.005,1.650381 0.0124,2.475561 0.005,0.813766 0.005,1.627566 0.0144,2.4413 0.009,0.723884 0.0209,1.447718 0.043,2.17134 0.0196,0.738968 0.0279,1.477777 0.021,2.21701 0.002,0.76622 0.006,1.532432 0.003,2.298657 -5.3e-4,0.750965 0.001,1.501939 -0.008,2.252869 -0.004,0.460161 -0.007,0.920769 -0.0379,1.380085 0.11428,0.256667 1.9292,-0.551389 1.81492,-0.808058 z" />
    <path
       style="fill:#000000;fill-opacity:1;stroke:none;stroke-width:0.7;stroke-miterlimit:4;stroke-dasharray:none;stroke-dashoffset:0;stroke-opacity:1"
       id="path14450"
       d="m 136.91629,28.99102 c 0.23999,0.181033 0.43704,0.416039 0.63131,0.643763 0.34091,0.419838 0.65136,0.863065 0.95939,1.3072 0.38677,0.561356 0.73343,1.148546 1.08433,1.732555 0.39481,0.647872 0.74707,1.319819 1.10067,1.990638 0.30759,0.577734 0.61065,1.157838 0.92458,1.732174 0.23178,0.433697 0.50997,0.839552 0.78646,1.245354 0.20167,0.292317 0.41532,0.576075 0.62629,0.861674 0.11353,0.150402 0.057,0.07684 0.16939,0.220784 0.14584,0.235892 1.81384,-0.795387 1.668,-1.031279 v 0 c -0.11135,-0.135906 -0.0552,-0.0666 -0.16842,-0.207989 -0.21332,-0.278323 -0.42962,-0.55449 -0.63274,-0.840489 -0.27681,-0.390631 -0.55719,-0.77978 -0.78811,-1.200182 -0.32188,-0.566862 -0.63194,-1.140248 -0.93874,-1.715386 -0.36099,-0.674031 -0.72624,-1.345748 -1.11511,-2.00424 -0.35222,-0.592698 -0.68786,-1.196205 -1.07467,-1.767464 -0.31231,-0.453451 -0.62373,-0.90813 -0.9609,-1.34365 -0.20178,-0.25477 -0.41031,-0.503316 -0.62817,-0.7445 -0.15854,-0.232436 -1.8021,0.888603 -1.64356,1.121037 z" />
    <path
       style="fill:#000000;fill-opacity:1;stroke:none;stroke-width:0.7;stroke-miterlimit:4;stroke-dasharray:none;stroke-dashoffset:0;stroke-opacity:1"
       id="path14452"
       d="m 142.83837,28.946943 c -0.17229,0.512696 -0.40811,1.00293 -0.6214,1.499627 -0.46187,1.019309 -0.9627,2.02035 -1.43807,3.033439 -0.51302,1.098672 -1.01509,2.202392 -1.52608,3.302006 -0.44036,0.93577 -0.88172,1.871276 -1.3349,2.800913 -0.34146,0.717315 -0.67519,1.438426 -0.9953,2.165538 -0.24418,0.569349 -0.50753,1.13039 -0.73176,1.708023 -0.19454,0.468656 -0.36524,0.946343 -0.53824,1.423186 -0.15414,0.452456 -0.31682,0.903774 -0.44213,1.365218 -0.13201,0.483746 -0.2674,0.966552 -0.40166,1.449694 -0.0682,0.221597 -0.13326,0.443672 -0.20566,0.663927 0.0956,0.255829 1.90453,-0.419814 1.80898,-0.675642 v 0 c 0.0688,-0.224724 0.13638,-0.449784 0.19832,-0.676521 0.13269,-0.48177 0.26102,-0.964811 0.40438,-1.443572 0.14411,-0.449789 0.28483,-0.900973 0.45008,-1.343581 0.1701,-0.471887 0.34481,-0.942152 0.53161,-1.407726 0.23142,-0.56651 0.47355,-1.12858 0.71748,-1.689799 0.31084,-0.718658 0.63451,-1.431805 0.96581,-2.141254 0.438,-0.929846 0.87434,-1.860516 1.30135,-2.795468 0.50168,-1.100855 1.00226,-2.202363 1.52117,-3.295224 0.49223,-1.018376 0.99069,-2.033739 1.47842,-3.054252 0.2464,-0.513665 0.49096,-1.028248 0.72887,-1.545768 -0.0929,-0.264636 -1.96422,0.392597 -1.87127,0.657236 z" />
    <path
       style="fill:#000000;fill-opacity:1;stroke:none;stroke-width:0.7;stroke-miterlimit:4;stroke-dasharray:none;stroke-dashoffset:0;stroke-opacity:1"
       id="path14454"
       d="m 127.69724,29.981921 c 0.30829,-0.209433 0.6668,-0.325461 1.01908,-0.43679 0.44399,-0.132376 0.89937,-0.223887 1.35961,-0.275209 0.3562,-0.04034 0.56468,0.09514 0.81107,0.331187 0.23187,0.250854 0.39184,0.55549 0.52722,0.866381 0.11944,0.292039 0.22263,0.590166 0.195,0.908357 -0.0856,0.380913 -0.30417,0.701723 -0.54444,1.001249 -0.34646,0.412414 -0.77642,0.741045 -1.18646,1.086131 -0.45086,0.373377 -0.89406,0.754271 -1.29028,1.185862 -0.33087,0.380109 -0.59987,0.804289 -0.83065,1.250641 -0.18413,0.353705 -0.27737,0.745683 -0.27883,1.143079 0.0333,0.465595 0.21839,0.733661 0.55553,1.039119 0.35466,0.303713 0.78129,0.472268 1.22379,0.600263 0.57989,0.163415 1.17634,0.137092 1.76845,0.07856 0.51998,-0.06219 1.03276,-0.173275 1.53643,-0.31511 0.31609,-0.08517 0.62395,-0.195385 0.9308,-0.308475 0.23924,-0.09051 0.47216,-0.196104 0.70789,-0.295027 0.12286,-0.06249 0.25163,-0.111056 0.37567,-0.170701 0.20409,0.189926 1.54708,-1.253233 1.34298,-1.443159 v 0 c -0.12647,0.05876 -0.24736,0.126233 -0.37795,0.176503 -0.22704,0.11661 -0.46425,0.21312 -0.69838,0.314397 -0.29977,0.132379 -0.60788,0.248052 -0.9199,0.347848 -0.4953,0.160186 -0.99621,0.302193 -1.51145,0.384042 -0.54926,0.07876 -1.10741,0.136671 -1.65606,0.01757 -0.39363,-0.09621 -0.78179,-0.216393 -1.10803,-0.46717 -0.26608,-0.220009 -0.38918,-0.371385 -0.37971,-0.732869 0.0408,-0.34703 0.14871,-0.674508 0.32658,-0.976778 0.23573,-0.413224 0.51045,-0.804469 0.84379,-1.145681 0.41159,-0.404714 0.85178,-0.777557 1.29584,-1.146064 0.42632,-0.357642 0.85064,-0.725088 1.17734,-1.180041 0.24967,-0.374224 0.46148,-0.774115 0.47864,-1.234234 -0.0183,-0.368943 -0.11834,-0.718185 -0.2701,-1.055087 -0.15792,-0.35333 -0.34409,-0.696259 -0.60098,-0.98866 -0.28606,-0.299503 -0.59057,-0.555932 -1.0213,-0.5945 -0.48191,0.02442 -0.95561,0.118509 -1.42466,0.228994 -0.35358,0.09355 -0.70747,0.190632 -1.04621,0.329689 -0.20869,-0.188135 -1.53901,1.287542 -1.33032,1.475677 z" />
    <path
       style="fill:#000000;fill-opacity:1;stroke:none;stroke-width:0.7;stroke-miterlimit:4;stroke-dasharray:none;stroke-dashoffset:0;stroke-opacity:1"
       id="path14503"
       d="m 116.51875,30.512165 c 0.0388,-0.208119 0.0738,-0.417282 0.1105,-0.626144 0.0487,-0.286637 0.10301,-0.572273 0.14757,-0.859772 0.0466,-0.247528 0.0689,-0.489987 0.0257,-0.738695 -0.0569,-0.280242 -0.25403,-0.475195 -0.47889,-0.633611 -0.29118,-0.182126 -0.6332,-0.22352 -0.96722,-0.260768 -0.38296,-0.03311 -0.76634,-0.0024 -1.14784,0.03221 -0.40764,0.04041 -0.81422,0.09153 -1.22019,0.146187 -0.35137,0.04651 -0.70165,0.100476 -1.05036,0.163777 -1.40768,0.312047 -2.03389,1.170401 -2.76366,2.177947 -0.44137,0.62806 -0.85366,1.275736 -1.26716,1.922269 -0.39793,0.625401 -0.78596,1.256898 -1.18685,1.880434 -0.37734,0.599805 -0.79496,1.172284 -1.21111,1.745289 -0.36878,0.507691 -0.77435,0.986698 -1.18747,1.458455 -0.32771,0.365355 -0.63585,0.747146 -0.96259,1.113309 -0.0491,0.05081 -0.0982,0.101616 -0.14735,0.152423 0.0731,0.264041 1.94015,-0.252846 1.86705,-0.516887 v 0 c 0.047,-0.05367 0.0941,-0.107333 0.14112,-0.160999 0.31644,-0.369594 0.62571,-0.745307 0.9454,-1.112157 0.40421,-0.48114 0.79828,-0.971233 1.16156,-1.484326 0.41427,-0.578435 0.82231,-1.161627 1.20048,-1.764559 0.39582,-0.624822 0.77989,-1.25703 1.18133,-1.878312 0.41096,-0.642524 0.82288,-1.28538 1.27905,-1.897186 0.2107,-0.273424 0.4198,-0.550135 0.66898,-0.790689 0.0673,-0.06496 0.29561,-0.225724 0.212,-0.183812 -1.87773,1.170355 -2.28614,0.87554 -0.28795,0.510966 0.40272,-0.05222 0.80449,-0.11013 1.208,-0.156149 0.36625,-0.03366 0.73257,-0.08364 1.10116,-0.07324 0.27998,0.0056 0.56949,0.0249 0.83455,0.120944 0.14539,0.07592 0.28565,0.153937 0.29871,0.333941 0.0112,0.213175 -0.0318,0.423543 -0.0605,0.634029 -0.0454,0.28453 -0.10056,0.567238 -0.15002,0.851062 -0.0433,0.233018 -0.10055,0.46659 -0.11211,0.70354 0.11448,0.257119 1.93259,-0.552358 1.81811,-0.809476 z"
       sodipodi:nodetypes="ccccccccccccccccssccccccscccccccccc" />
    <path
       style="fill:#000000;fill-opacity:1;stroke:none;stroke-width:0.7;stroke-miterlimit:4;stroke-dasharray:none;stroke-dashoffset:0;stroke-opacity:1"
       id="path14505"
       d="m 106.04826,28.349471 c -0.15506,0.407178 -0.34436,0.800431 -0.53223,1.193266 -0.31919,0.656365 -0.666,1.298474 -1.01076,1.941568 -0.34658,0.641797 -0.72465,1.265264 -1.09723,1.892075 -0.32924,0.526127 -0.67011,1.045274 -1.03374,1.548318 -0.2661,0.355526 -0.53482,0.709266 -0.81994,1.049769 -0.18487,0.233442 -0.37748,0.460097 -0.56365,0.692462 -0.13735,0.178467 -0.26824,0.360542 -0.37899,0.557077 -0.14602,0.266761 -0.1895,0.577215 -0.23678,0.874001 -0.0651,0.431305 -0.0998,0.866167 -0.10071,1.302155 0.0128,0.783098 0.009,1.565376 -0.0165,2.348177 -0.0251,0.888151 -0.0809,1.774722 -0.15012,2.660378 -0.0417,0.629745 -0.10464,1.257236 -0.174639,1.884314 -0.03836,0.322369 -0.112165,0.638641 -0.187664,0.95385 0.10114,0.256601 1.915573,-0.458568 1.814443,-0.715166 v 0 c 0.066,-0.326631 0.12267,-0.655453 0.14895,-0.98801 0.0528,-0.624515 0.0887,-1.25004 0.12791,-1.875531 0.057,-0.887031 0.0975,-1.77474 0.12404,-2.663235 0.0315,-0.791273 0.0567,-1.582486 0.0744,-2.37418 0.0288,-0.420632 0.0647,-0.842071 0.14837,-1.255951 0.0622,-0.266398 0.13569,-0.525478 0.3063,-0.745416 0.1231,-0.17468 0.25035,-0.346233 0.38519,-0.512085 0.18278,-0.228311 0.36697,-0.455453 0.54685,-0.686099 0.27149,-0.349271 0.53557,-0.70463 0.78773,-1.06812 0.34691,-0.514554 0.68825,-1.033103 1.00248,-1.568479 0.37093,-0.629057 0.74505,-1.256578 1.08351,-1.904024 0.35005,-0.64939 0.69758,-1.300207 1.02386,-1.961986 0.20087,-0.405283 0.39052,-0.817176 0.61033,-1.212514 -0.0896,-0.266075 -1.971,0.367314 -1.88143,0.633386 z" />
    <path
       style="fill:#000000;fill-opacity:1;stroke:none;stroke-width:0.7;stroke-miterlimit:4;stroke-dasharray:none;stroke-dashoffset:0;stroke-opacity:1"
       id="path14509"
       d="m 99.263438,28.530177 c -0.31601,0.536 -0.682151,1.040944 -1.038778,1.550315 -0.611076,0.880507 -1.236864,1.750663 -1.861913,2.621267 -0.540342,0.766334 -1.106313,1.513919 -1.689253,2.248212 -0.432493,0.547145 -0.875022,1.086945 -1.335167,1.61113 -0.321281,0.357518 -0.655082,0.703897 -0.993762,1.044956 -0.221197,0.233124 -0.520708,0.410162 -0.645083,0.715454 -0.06757,0.253839 0.135067,0.483087 0.371287,0.542449 0.225393,0.04379 0.441738,-0.03782 0.655209,-0.100941 0.36794,-0.123267 0.721611,-0.282086 1.07202,-0.447567 0.40363,-0.191113 0.81842,-0.525014 1.236287,-0.681891 0.387087,-0.277283 0.914144,-0.552098 1.389163,-0.698896 0.385739,-0.114846 0.648678,-0.181572 1.033591,-0.299086 0.305578,-0.0971 0.615161,-0.145029 1.062306,-0.249563 0.836055,-0.223691 1.359929,-0.350864 2.178385,-0.886389 0.0403,-0.02635 0.008,-0.09589 0.0119,-0.143843 -0.10276,-0.404879 -0.46898,-0.609455 -0.796142,-0.823376 C 99.56991,34.30992 99.225211,34.08926 98.878377,33.871881 98.405664,33.590793 97.958825,33.269526 97.519919,32.938929 96.914031,32.48596 96.337327,31.995843 95.766546,31.499889 95.249579,31.05476 94.75266,30.586672 94.266036,30.108729 93.86937,29.70449 93.480287,29.292344 93.106714,28.866616 c -0.338942,-0.389504 -0.614283,-0.82808 -0.89272,-1.261335 -0.266444,-0.414687 -0.478483,-0.8591 -0.673569,-1.310604 -0.187989,-0.452391 -0.324889,-0.922933 -0.45753,-1.39377 -0.102053,-0.409137 -0.20488,-0.818332 -0.288766,-1.23167 -0.07423,-0.360877 -0.104902,-0.728254 -0.155351,-1.092615 -0.04668,-0.349979 -0.08419,-0.700854 -0.130661,-1.050843 -0.04338,-0.367707 -0.07265,-0.73658 -0.11574,-1.104321 -0.03653,-0.320373 -0.06352,-0.641709 -0.08624,-0.963323 -0.01696,-0.246645 -0.02797,-0.493638 -0.03709,-0.74068 -0.0063,-0.173953 -0.0099,-0.347982 -0.01275,-0.52202 -0.114745,-0.254161 -1.911935,0.557202 -1.79719,0.811363 v 0 c 0.0062,0.175382 0.01246,0.35077 0.0208,0.526068 0.01265,0.250363 0.02838,0.500573 0.05065,0.750284 0.02928,0.323723 0.06467,0.646807 0.102442,0.969645 0.04037,0.369839 0.07405,0.740338 0.117041,1.109902 0.04311,0.350998 0.0831,0.702377 0.131887,1.052653 0.04791,0.373736 0.09209,0.748342 0.172132,1.117002 0.09189,0.420251 0.203346,0.835904 0.312592,1.251904 0.144357,0.483989 0.288155,0.969112 0.483494,1.435657 0.205277,0.47022 0.431078,0.930923 0.704972,1.365739 0.291547,0.447358 0.582427,0.897509 0.926719,1.306835 0.381511,0.43283 0.783175,0.846984 1.186932,1.259023 0.495977,0.481216 1.005842,0.948364 1.527902,1.401156 0.578461,0.494956 1.15855,0.988058 1.754426,1.462109 0.434707,0.346818 0.878353,0.685607 1.348303,0.983589 0.342583,0.221347 0.692949,0.430604 1.03088,0.65919 0.122746,0.07913 0.188571,0.119581 0.306465,0.203126 0.04229,0.02997 0.08399,0.0608 0.125052,0.09244 0.02969,0.02289 0.05705,0.04873 0.08716,0.07105 0.005,0.0037 0.02,0.01243 0.01759,0.0066 -0.0094,-0.02262 -0.02685,-0.04095 -0.04028,-0.06142 -0.570979,-0.331869 -0.06227,-0.01588 1.511824,-0.914455 0.0322,-0.01839 -0.0667,0.03252 -0.10046,0.04791 -0.12319,0.05613 -0.251407,0.09508 -0.377343,0.144399 -0.295505,0.12196 -0.586846,0.255035 -0.891302,0.354084 -0.380868,0.140475 -0.748905,0.354777 -1.136303,0.475755 -0.476099,0.14908 -0.955769,0.333701 -1.431911,0.482667 -0.42686,0.138462 -0.835694,0.26389 -1.266588,0.398504 -0.345569,0.151193 -0.687602,0.27608 -1.045162,0.399474 -0.176618,0.07345 -0.35827,0.122835 -0.532429,0.196934 -0.151239,0.04122 -0.03099,0.20669 -0.01328,0.205907 0.01662,-7.94e-4 0.02315,-0.02392 0.03472,-0.03586 0.219848,-0.201224 0.430739,-0.411904 0.638493,-0.625552 0.329591,-0.345104 0.652843,-0.69673 0.960564,-1.061559 0.442519,-0.531159 0.876475,-1.069469 1.297787,-1.617646 0.568267,-0.738032 1.115353,-1.491824 1.651648,-2.253382 0.625001,-0.87548 1.24755,-1.752722 1.875786,-2.625889 0.38538,-0.529157 0.75898,-1.067814 1.16242,-1.583325 -0.081,-0.26888 -1.982283,0.30395 -1.901273,0.572831 z"
       sodipodi:nodetypes="scccccccccccccscccccccccccccccccsscccccccccccccccsssccscccccccccccccccccs" />
    <path
       style="fill:#000000;fill-opacity:1;stroke:none;stroke-width:0.7;stroke-miterlimit:4;stroke-dasharray:none;stroke-dashoffset:0;stroke-opacity:1"
       id="path14511"
       d="m 87.01086,47.811213 c -0.01318,-0.666922 0.02148,-1.333661 0.05166,-1.999699 0.05179,-0.952421 0.09696,-1.905067 0.12464,-2.858498 0.02596,-0.922597 0.04767,-1.845318 0.06143,-2.768177 0.02053,-0.845134 0.02088,-1.690486 0.02734,-2.535774 0.0039,-0.797954 0.01611,-1.59584 0.01646,-2.393807 -5.29e-4,-0.768083 0.0053,-1.536147 0.0051,-2.304227 0.0024,-0.698236 0.0053,-1.396482 0.01016,-2.094704 7.93e-4,-0.536773 0.0094,-1.073489 0.01328,-1.610238 0.0024,-0.361717 0.007,-0.723413 0.01114,-1.085112 0.003,-0.232823 0.0033,-0.46568 0.0072,-0.698489 0.0076,-0.214556 -0.07931,-0.347824 -0.222104,-0.499155 -0.799706,-0.562367 -1.581306,0.5632 -1.978152,1.187455 -0.179356,0.324138 -0.334611,0.660799 -0.506889,0.988724 -0.263697,0.485325 -0.501915,0.983649 -0.753901,1.475023 -0.262126,0.514562 -0.531469,1.024488 -0.821648,1.523709 -0.26485,0.444479 -0.560723,0.87059 -0.855133,1.296016 -0.293659,0.437838 -0.618469,0.852967 -0.94497,1.26636 -0.339,0.418835 -0.700185,0.820547 -1.077558,1.20515 -0.330348,0.364543 -0.695026,0.694386 -1.06194,1.021112 -0.335851,0.298977 -0.682889,0.586269 -1.043778,0.854594 0.06441,0.266776 1.950826,-0.188712 1.88641,-0.455491 v 0 c 0.348464,-0.283329 0.69214,-0.572442 1.021424,-0.878081 0.366694,-0.335073 0.720712,-0.682966 1.055272,-1.050422 0.367141,-0.400582 0.727755,-0.807728 1.061035,-1.237226 0.329697,-0.420338 0.646152,-0.850895 0.944978,-1.293821 0.291367,-0.43372 0.586131,-0.866079 0.83947,-1.323654 0.282069,-0.505765 0.541509,-1.023496 0.809342,-1.536864 0.25451,-0.493679 0.500808,-0.991579 0.772215,-1.476402 1.796152,-2.812418 -0.450802,0.617935 -0.869012,-0.28237 -0.08661,-0.174082 -0.06115,-0.175622 -0.05695,0.01752 0.0039,0.230692 0.004,0.461436 0.0069,0.692142 0.004,0.358481 0.0082,0.71696 0.0104,1.075459 0.0034,0.533022 0.01151,1.066017 0.01156,1.59906 0.0039,0.695706 0.0057,1.391436 0.0062,2.08715 -0.0024,0.767712 7.94e-4,1.53543 -0.0043,2.303134 -0.0048,0.795798 7.94e-4,1.591614 -0.0053,2.387412 -0.0049,0.843571 -0.01871,1.687084 -0.02349,2.530666 -0.01408,0.919715 -0.02603,1.839521 -0.05635,2.758887 -0.03407,0.950256 -0.06956,1.900576 -0.126346,2.8498 -0.04557,0.689155 -0.09422,1.37812 -0.150736,2.066473 0.113652,0.255265 1.918639,-0.548368 1.80499,-0.803632 z"
       sodipodi:nodetypes="cccccccccccccccccccccssccccccccccccccccccccc" />
    <path
       style="fill:#000000;fill-opacity:1;stroke:none;stroke-width:0.7;stroke-miterlimit:4;stroke-dasharray:none;stroke-dashoffset:0;stroke-opacity:1"
       id="path14515"
       d="m 75.661897,18.697213 c 0.0359,0.489986 0.02941,0.981615 0.01624,1.472302 -0.03799,0.904789 -0.08559,1.809107 -0.129286,2.713633 -0.0551,1.104009 -0.0925,2.208751 -0.133072,3.31335 -0.04015,1.036427 -0.08854,2.072392 -0.148672,3.107847 -0.05686,0.872992 -0.11657,1.745662 -0.15998,2.619449 -0.02529,0.710163 -0.06346,1.419542 -0.102973,2.129009 -0.03374,0.553289 -0.06206,1.106861 -0.08343,1.660761 0.06241,1.566191 2.432534,3.024205 0.297311,-0.239255 -0.313105,-0.548648 -0.598164,-1.112477 -0.886616,-1.674275 -0.301254,-0.566936 -0.582205,-1.144222 -0.871947,-1.717008 -0.279789,-0.552342 -0.561655,-1.103694 -0.847164,-1.653109 -0.244097,-0.467556 -0.479949,-0.939289 -0.717582,-1.410118 -0.181102,-0.334007 -0.329044,-0.684633 -0.51566,-1.01563 -0.597749,-0.695483 -0.883063,0.0083 -2.019599,0.686591 -0.0494,0.02948 -0.02111,0.113097 -0.03287,0.169405 -0.02627,0.125921 -0.05524,0.251267 -0.08202,0.377079 -0.122991,0.609891 -0.199691,1.227685 -0.27088,1.845366 -0.08266,0.793268 -0.147519,1.58778 -0.198059,2.383694 -0.05454,0.935546 -0.120716,1.870298 -0.199882,2.804068 -0.08009,0.957127 -0.170202,1.9133 -0.264478,2.869125 -0.08759,0.876248 -0.181144,1.751944 -0.280834,2.62689 -0.08478,0.754888 -0.166476,1.510387 -0.260366,2.26423 -0.07232,0.576945 -0.141631,1.154821 -0.240591,1.727914 -0.01815,0.08329 -0.03629,0.166582 -0.05444,0.249872 0.100976,0.252601 1.887133,-0.461409 1.786157,-0.714012 v 0 l 0.04509,-0.259514 c 0.08745,-0.577096 0.158721,-1.156163 0.216736,-1.736987 0.07984,-0.752705 0.156707,-1.50572 0.239617,-2.258105 0.09099,-0.875122 0.178684,-1.750589 0.266057,-2.626079 0.08823,-0.955609 0.17257,-1.911533 0.253516,-2.867793 0.08416,-0.939022 0.148244,-1.879581 0.217702,-2.819767 0.0561,-0.792329 0.128339,-1.583378 0.22306,-2.372098 0.321479,-2.655714 1.344187,-2.345509 -1.075087,-1.261748 -0.02904,0.01291 -0.01386,-0.06551 -0.0028,-0.09529 0.0047,-0.01257 0.02665,-0.0031 0.03998,-0.0046 0.204718,0.309462 0.345368,0.655268 0.528854,0.977117 0.247267,0.466855 0.4859,0.93825 0.732563,1.405448 0.291655,0.543703 0.574526,1.092137 0.852384,1.64301 0.291417,0.572749 0.571802,1.151128 0.871143,1.719858 0.291433,0.565906 0.581234,1.132779 0.894816,1.68688 0.286578,0.509466 0.58929,1.010491 0.939588,1.479306 0.03101,0.03594 0.365183,0.420802 0.39261,0.40916 1.648089,-0.699627 1.767218,-0.324842 1.756267,-1.186749 -0.0011,-0.308882 0.0027,-0.617767 0.0069,-0.926618 0.0073,-0.41919 0.01326,-0.838412 0.0266,-1.257472 0.01794,-0.548614 0.03854,-1.097143 0.06425,-1.645452 0.03471,-0.707538 0.05903,-1.415351 0.08446,-2.123268 0.03817,-0.868079 0.0821,-1.735926 0.133062,-2.603346 0.05955,-1.035114 0.09104,-2.071339 0.13017,-3.107367 0.04551,-1.103709 0.07188,-2.208335 0.143287,-3.31087 0.05861,-0.913162 0.121352,-1.826122 0.173657,-2.739645 0.02635,-0.506829 0.028,-1.014158 0.05582,-1.520825 -0.113941,-0.255915 -1.923534,0.549768 -1.809592,0.805683 z"
       sodipodi:nodetypes="ccccccccccccccsccccccccccscccccccccccccccccccccccccccccc" />
    <path
       style="fill:#000000;fill-opacity:1;stroke:none;stroke-width:0.7;stroke-miterlimit:4;stroke-dasharray:none;stroke-dashoffset:0;stroke-opacity:1"
       id="path14517"
       d="m 70.947662,24.622259 c -0.124994,0.246303 -0.297608,0.466632 -0.451427,0.695753 -0.284318,0.43765 -0.547132,0.889345 -0.815729,1.33688 -0.318354,0.561197 -0.633962,1.123529 -0.963189,1.678461 -0.316775,0.533559 -0.654317,1.054566 -1.005694,1.565913 -0.348099,0.489762 -0.683297,0.988398 -1.041781,1.470747 -0.382694,0.472993 -0.744987,0.962041 -1.122527,1.438976 -0.312499,0.433396 -0.650838,0.847029 -0.977069,1.269886 -0.274651,0.353952 -0.552212,0.70611 -0.845957,1.044496 -0.234466,0.288655 -0.477663,0.569992 -0.724737,0.847876 -0.221861,0.274164 -0.45513,0.538705 -0.69089,0.800909 -0.237051,0.247764 -0.50672,0.460068 -0.7683,0.680633 -0.118874,0.09617 -0.250539,0.175802 -0.380891,0.255315 -0.04167,0.02543 -0.169016,0.09772 -0.126863,0.07312 0.494398,-0.28856 0.989063,-0.576662 1.483596,-0.864992 0.04444,-0.0259 -0.08887,0.05182 -0.133305,0.07773 -0.277765,0.135554 -0.579118,0.207949 -0.879325,0.273899 -0.223832,0.04281 -0.447275,0.09371 -0.675261,0.106461 -0.366673,-0.03905 -0.655796,-0.317913 -0.928185,-0.542975 -0.535842,-0.470837 -1.041881,-0.974101 -1.540772,-1.483493 -0.604491,-0.617357 -1.183804,-1.258281 -1.746496,-1.913749 -0.559739,-0.670412 -1.09343,-1.361274 -1.575943,-2.089304 -0.261268,-0.457599 -0.620046,-0.926372 -0.668308,-1.471454 -0.0066,-0.07475 0.0053,-0.149994 0.0079,-0.224991 0.01897,-0.0688 0.02704,-0.141589 0.05694,-0.206393 0.170439,-0.369448 0.603091,-0.586904 0.941737,-0.765297 -2.551478,1.433949 -1.399384,0.761712 -0.770864,0.55404 0.273722,-0.09044 0.553419,-0.15798 0.833877,-0.223263 0.411393,-0.08993 0.830085,-0.13865 1.251003,-0.138232 0.245567,0.0052 0.496255,0.01397 0.696264,0.168013 0.257667,0.3061 0.322524,0.726388 0.398944,1.107514 0.09311,0.575514 0.06322,1.148263 -0.04079,1.718541 -0.184705,0.863414 -0.633791,1.639607 -1.077185,2.39273 -0.723331,1.146191 -1.46341,2.281722 -2.186508,3.428124 -0.765972,1.227093 -1.508012,2.468856 -2.248353,3.711501 -0.561874,0.942181 -1.110146,1.892268 -1.650516,2.846914 -0.37707,0.657431 -0.724262,1.331235 -1.060468,2.010259 -0.230735,0.480232 -0.408633,0.983821 -0.574532,1.489461 0.09538,0.256744 1.910834,-0.417697 1.815454,-0.674441 v 0 c 0.15865,-0.487339 0.334209,-0.969751 0.564476,-1.428615 0.324887,-0.667822 0.661998,-1.329613 1.025437,-1.977448 0.52206,-0.947381 1.053894,-1.88925 1.60161,-2.822083 0.722988,-1.240705 1.450295,-2.479167 2.221939,-3.690504 0.739794,-1.156702 1.51021,-2.293625 2.237214,-3.458347 0.464283,-0.800037 0.931095,-1.621782 1.095804,-2.544157 0.09414,-0.616206 0.104391,-1.235175 -5.3e-4,-1.85211 -0.09325,-0.466801 -0.190367,-0.953407 -0.489704,-1.337526 -0.288128,-0.293881 -0.4685,-0.349682 -0.875117,-0.385424 -0.447283,-0.01778 -0.893395,0.0042 -1.333434,0.09446 -0.293486,0.05549 -0.580739,0.124087 -0.868971,0.202782 -0.06796,0.01855 -0.531995,0.146751 -0.599106,0.182284 -0.622012,0.329359 -1.227236,0.689496 -1.840852,1.034243 -0.499997,0.350393 -0.863968,0.710777 -0.874789,1.360517 0.0099,0.09652 0.01169,0.194241 0.02982,0.289562 0.110178,0.579337 0.46573,1.078228 0.766984,1.570149 0.496809,0.736359 1.045663,1.433629 1.609225,2.119971 0.562581,0.665221 1.143776,1.314887 1.747396,1.943211 0.50261,0.516705 1.00335,1.03573 1.52513,1.533245 0.313769,0.281038 0.633468,0.586057 1.028374,0.747144 0.259329,0.07229 0.508701,0.04329 0.769718,-0.01416 0.316773,-0.05897 0.633519,-0.123497 0.94143,-0.219538 0.885732,-0.275497 1.676381,-0.848831 2.389722,-1.437857 0.265001,-0.228573 0.524359,-0.464923 0.751171,-0.732387 0.232375,-0.266052 0.459549,-0.536509 0.690594,-0.803691 0.241694,-0.281559 0.477999,-0.567587 0.714153,-0.853794 0.280513,-0.348927 0.559292,-0.699096 0.830744,-1.055174 0.325114,-0.41905 0.643524,-0.843135 0.964287,-1.26551 0.369041,-0.485085 0.747635,-0.962639 1.11592,-1.448261 0.352742,-0.489371 0.692007,-0.988274 1.035949,-1.483841 0.34603,-0.520031 0.680903,-1.047428 0.994728,-1.587649 0.324765,-0.557236 0.634521,-1.123119 0.968883,-1.674729 0.27487,-0.448013 0.548454,-0.897633 0.854315,-1.325458 0.165659,-0.233985 0.32367,-0.474706 0.496412,-0.702788 -0.08173,-0.269088 -1.984473,0.308832 -1.902741,0.57792 z" />
    <path
       style="fill:#000000;fill-opacity:1;stroke:none;stroke-width:0.7;stroke-miterlimit:4;stroke-dasharray:none;stroke-dashoffset:0;stroke-opacity:1"
       id="path17956"
       d="m 154.64578,27.732042 c -0.18424,0.101413 -0.33982,0.258541 -0.49934,0.396336 -0.33048,0.311226 -0.62912,0.653052 -0.93638,0.986419 -0.36831,0.402696 -0.71039,0.827495 -1.04092,1.261396 -0.29803,0.395809 -0.56895,0.810101 -0.81993,1.237009 -0.22133,0.385644 -0.44459,0.77016 -0.66145,1.158356 -0.17839,0.325668 -0.35591,0.651272 -0.52989,0.979353 -0.15612,0.302088 -0.33753,0.589084 -0.51146,0.880922 -0.19393,0.321125 -0.39819,0.63586 -0.59067,0.95784 -0.18172,0.318108 -0.40154,0.609584 -0.61541,0.905898 -0.21877,0.287179 -0.43159,0.578631 -0.64502,0.869757 -0.18493,0.249577 -0.36301,0.504196 -0.56607,0.739542 -0.142,0.18972 -0.26895,0.389859 -0.4188,0.573644 -0.11601,0.150603 -0.21635,0.311454 -0.34092,0.455276 -0.12496,0.166542 -0.23878,0.340204 -0.35704,0.511508 -0.10761,0.161499 -0.20536,0.3291 -0.29965,0.498608 0.0849,0.26307 1.94509,-0.337325 1.86019,-0.600395 v 0 c 0.10086,-0.160777 0.20433,-0.319898 0.31665,-0.473001 0.11881,-0.168834 0.24664,-0.33129 0.37268,-0.494697 0.10891,-0.155088 0.21884,-0.308951 0.33447,-0.459237 0.1334,-0.190352 0.26561,-0.381707 0.41358,-0.561285 0.18417,-0.249626 0.36667,-0.500369 0.54881,-0.751509 0.21275,-0.291867 0.43348,-0.577845 0.64295,-0.872122 0.21623,-0.30121 0.41436,-0.614204 0.60349,-0.933122 0.19932,-0.319839 0.40045,-0.638577 0.59436,-0.961758 0.17856,-0.294555 0.34709,-0.594431 0.5055,-0.900372 0.1729,-0.323805 0.34797,-0.646406 0.52441,-0.968295 0.21564,-0.382119 0.42772,-0.766398 0.65471,-1.14196 0.25839,-0.410176 0.53003,-0.811972 0.8281,-1.194644 0.33252,-0.42385 0.67801,-0.837523 1.0494,-1.228154 0.30844,-0.331237 0.62192,-0.661577 0.97803,-0.942483 0.17631,-0.13717 0.36295,-0.260495 0.5396,-0.394972 -0.0659,-0.273506 -1.9999,0.192637 -1.93398,0.466142 z" />
    <path
       style="fill:#000000;fill-opacity:1;stroke:none;stroke-width:0.7;stroke-miterlimit:4;stroke-dasharray:none;stroke-dashoffset:0;stroke-opacity:1"
       id="path17960"
       d="m 154.81492,35.382626 c -0.2064,-0.321178 -0.36237,-0.673037 -0.52162,-1.019257 -0.28222,-0.617588 -0.51815,-1.254676 -0.76761,-1.885818 -0.24912,-0.644261 -0.51261,-1.283494 -0.82085,-1.901883 -0.26517,-0.549659 -0.60037,-1.057529 -0.96319,-1.546366 -0.36046,-0.47626 -0.74957,-0.929629 -1.15059,-1.371914 -0.35841,-0.408075 -0.73307,-0.800442 -1.12071,-1.180651 -0.32321,-0.313031 -0.635,-0.637216 -0.96393,-0.944329 -0.28722,-0.262492 -0.58719,-0.51011 -0.89873,-0.743052 -0.29408,-0.223392 -0.6056,-0.419951 -0.92609,-0.602626 -0.30165,-0.176369 -0.61804,-0.324297 -0.94039,-0.45818 -0.38197,-0.170601 -0.78094,-0.295205 -1.18303,-0.407909 -0.37127,-0.103938 -0.75028,-0.172512 -1.13012,-0.235658 -0.17397,-0.206084 -1.63121,1.024115 -1.45724,1.2302 v 0 c 0.36538,0.05682 0.73089,0.116587 1.08707,0.218391 0.38703,0.102049 0.77255,0.219689 1.13981,0.37988 0.30958,0.127073 0.6173,0.259593 0.91156,0.419719 0.30961,0.174077 0.61952,0.348589 0.90122,0.566709 0.30726,0.215611 0.59488,0.456361 0.88,0.700233 0.33068,0.30208 0.64494,0.620848 0.96912,0.929749 0.38705,0.370882 0.76289,0.753009 1.11936,1.153607 0.39527,0.430323 0.77336,0.876644 1.12967,1.339863 0.35054,0.470099 0.67603,0.957755 0.93535,1.485252 0.30541,0.606086 0.57329,1.230228 0.81742,1.863423 0.24539,0.639723 0.48443,1.281996 0.75103,1.913353 0.15579,0.370919 0.31916,0.738743 0.49131,1.102386 0.14214,0.241999 1.85333,-0.763124 1.71118,-1.005122 z" />
  </g>
  <g
     inkscape:groupmode="layer"
     id="layer3"
     inkscape:label="Layer 3">
    <text
       xml:space="preserve"
       style="font-style:normal;font-weight:normal;font-size:8.46667px;line-height:1.25;font-family:sans-serif;letter-spacing:0px;word-spacing:0px;fill:#000000;fill-opacity:1;stroke:none;stroke-width:0.264583"
       x="124.25361"
       y="14.665342"
       id="text252407"><tspan
         sodipodi:role="line"
         id="tspan252405"
         style="font-style:normal;font-variant:normal;font-weight:normal;font-stretch:normal;font-size:8.46667px;font-family:Cantarell;-inkscape-font-specification:'Cantarell, Normal';font-variant-ligatures:normal;font-variant-caps:normal;font-variant-numeric:normal;font-variant-east-asian:normal;stroke-width:0.264583"
         x="124.25361"
         y="14.665342">+merlan #flirora</tspan></text>
  </g>
  <g
     inkscape:groupmode="layer"
     id="layer4"
     inkscape:label="Layer 4" />
  <g
     inkscape:groupmode="layer"
     id="layer7"
     inkscape:label="Layer 5" />
</svg>
