<?xml version="1.0" encoding="UTF-8" standalone="no"?>
<!-- Created with Inkscape (http://www.inkscape.org/) -->

<svg
   width="210mm"
   height="100mm"
   viewBox="0 0 210 100"
   version="1.1"
   id="svg5"
   inkscape:version="1.1.1 (3bf5ae0d25, 2021-09-20)"
   sodipodi:docname="principles1.svg"
   xmlns:inkscape="http://www.inkscape.org/namespaces/inkscape"
   xmlns:sodipodi="http://sodipodi.sourceforge.net/DTD/sodipodi-0.dtd"
   xmlns:xlink="http://www.w3.org/1999/xlink"
   xmlns="http://www.w3.org/2000/svg"
   xmlns:svg="http://www.w3.org/2000/svg">
  <sodipodi:namedview
     id="namedview7"
     pagecolor="#ffffff"
     bordercolor="#666666"
     borderopacity="1.0"
     inkscape:pageshadow="2"
     inkscape:pageopacity="0.0"
     inkscape:pagecheckerboard="0"
     inkscape:document-units="mm"
     showgrid="false"
     inkscape:zoom="1.2953002"
     inkscape:cx="368.2544"
     inkscape:cy="293.7543"
     inkscape:window-width="1920"
     inkscape:window-height="1024"
     inkscape:window-x="0"
     inkscape:window-y="0"
     inkscape:window-maximized="1"
     inkscape:current-layer="layer5" />
  <defs
     id="defs2">
    <marker
       style="overflow:visible"
       id="marker238995"
       refX="0"
       refY="0"
       orient="auto"
       inkscape:stockid="Arrow1Mend"
       inkscape:isstock="true">
      <path
         transform="matrix(-0.4,0,0,-0.4,-4,0)"
         style="fill:context-stroke;fill-rule:evenodd;stroke:context-stroke;stroke-width:1pt"
         d="M 0,0 5,-5 -12.5,0 5,5 Z"
         id="path238993" />
    </marker>
    <marker
       style="overflow:visible"
       id="marker21911"
       refX="0"
       refY="0"
       orient="auto"
       inkscape:stockid="Arrow1Mend"
       inkscape:isstock="true">
      <path
         transform="matrix(-0.4,0,0,-0.4,-4,0)"
         style="fill:context-stroke;fill-rule:evenodd;stroke:context-stroke;stroke-width:1pt"
         d="M 0,0 5,-5 -12.5,0 5,5 Z"
         id="path21909" />
    </marker>
    <marker
       style="overflow:visible"
       id="marker21782"
       refX="0"
       refY="0"
       orient="auto"
       inkscape:stockid="Arrow1Mend"
       inkscape:isstock="true">
      <path
         transform="matrix(-0.4,0,0,-0.4,-4,0)"
         style="fill:context-stroke;fill-rule:evenodd;stroke:context-stroke;stroke-width:1pt"
         d="M 0,0 5,-5 -12.5,0 5,5 Z"
         id="path21780" />
    </marker>
    <marker
       style="overflow:visible"
       id="Arrow1Mend"
       refX="0"
       refY="0"
       orient="auto"
       inkscape:stockid="Arrow1Mend"
       inkscape:isstock="true">
      <path
         transform="matrix(-0.4,0,0,-0.4,-4,0)"
         style="fill:context-stroke;fill-rule:evenodd;stroke:context-stroke;stroke-width:1pt"
         d="M 0,0 5,-5 -12.5,0 5,5 Z"
         id="path21487" />
    </marker>
  </defs>
  <g
     inkscape:groupmode="layer"
     id="layer5"
     inkscape:label="Layer 6">
    <rect
       style="fill:#ffffff;fill-opacity:1;stroke:none;stroke-width:4.38124;stroke-miterlimit:4;stroke-dasharray:none;stroke-dashoffset:0;stroke-opacity:1"
       id="rect13451"
       width="210"
       height="100"
       x="0"
       y="0" />
  </g>
  <g
     inkscape:label="Layer 1"
     inkscape:groupmode="layer"
     id="layer1"
     sodipodi:insensitive="true">
    <g
       id="g4788">
      <path
         style="fill:none;fill-opacity:1;stroke:#b1f0ee;stroke-width:0.5;stroke-miterlimit:4;stroke-dasharray:none;stroke-opacity:1"
         d="M 11.895657,18.778496 H 193.50069"
         id="path899" />
      <path
         style="fill:none;fill-opacity:1;stroke:#b1f0ee;stroke-width:0.5;stroke-miterlimit:4;stroke-dasharray:2, 0.5;stroke-dashoffset:0;stroke-opacity:1"
         d="M 11.895657,28.183713 H 193.5007"
         id="path899-0" />
      <path
         style="fill:none;fill-opacity:1;stroke:#f6b7ab;stroke-width:0.5;stroke-miterlimit:4;stroke-dasharray:none;stroke-opacity:1"
         d="M 11.895657,38.130206 H 193.50069"
         id="path899-0-8" />
      <path
         style="fill:none;fill-opacity:1;stroke:#b1f0ee;stroke-width:0.5;stroke-miterlimit:4;stroke-dasharray:none;stroke-dashoffset:0;stroke-opacity:1"
         d="M 11.895657,47.785355 H 193.5007"
         id="path899-0-5" />
    </g>
    <g
       id="g5079"
       transform="translate(0,42.333335)">
      <path
         style="fill:none;fill-opacity:1;stroke:#b1f0ee;stroke-width:0.5;stroke-miterlimit:4;stroke-dasharray:none;stroke-opacity:1"
         d="M 11.895657,18.778496 H 193.50069"
         id="path5071" />
      <path
         style="fill:none;fill-opacity:1;stroke:#b1f0ee;stroke-width:0.5;stroke-miterlimit:4;stroke-dasharray:2, 0.5;stroke-dashoffset:0;stroke-opacity:1"
         d="M 11.895657,28.183713 H 193.5007"
         id="path5073" />
      <path
         style="fill:none;fill-opacity:1;stroke:#f6b7ab;stroke-width:0.5;stroke-miterlimit:4;stroke-dasharray:none;stroke-opacity:1"
         d="M 11.895657,38.130206 H 193.50069"
         id="path5075" />
      <path
         style="fill:none;fill-opacity:1;stroke:#b1f0ee;stroke-width:0.5;stroke-miterlimit:4;stroke-dasharray:none;stroke-dashoffset:0;stroke-opacity:1"
         d="M 11.895657,47.785355 H 193.5007"
         id="path5077" />
    </g>
  </g>
  <g
     inkscape:groupmode="layer"
     id="layer2"
     inkscape:label="Layer 2">
    <path
       style="fill:#000000;fill-opacity:1;stroke:none;stroke-width:0.499999;stroke-miterlimit:4;stroke-dasharray:none;stroke-opacity:1"
       id="path222897"
       d="m 180.25297,30.217901 c -0.0786,-0.41773 -0.42718,-0.718101 -0.72737,-0.989 -0.4735,-0.407413 -1.0231,-0.684508 -1.60181,-0.90678 -0.63151,-0.223996 -1.29348,-0.33888 -1.95293,-0.444679 -0.49284,-0.08862 -0.98606,-0.138343 -1.48107,-0.05044 -1.23546,0.344869 -1.87594,0.765937 -2.322,1.746552 -0.1185,0.334309 -0.16565,0.683982 -0.18257,1.036214 -0.0195,0.429374 0.14462,0.796491 0.37342,1.148926 0.42619,0.577959 1.07368,0.925531 1.68864,1.267955 0.64269,0.342032 1.28812,0.677244 1.90374,1.066583 0.44078,0.282737 0.85713,0.594125 1.11838,1.055344 0.21117,0.441745 -0.0212,0.770305 -0.29488,1.111639 -0.40436,0.451149 -0.91755,0.773805 -1.43882,1.071705 2.821,-1.548326 0.87309,-0.526026 0.1917,-0.202335 -0.32344,0.156586 -0.65527,0.294161 -0.99569,0.408969 -0.36243,0.122719 -0.73933,0.152078 -1.11896,0.152289 -0.38622,-0.0043 -0.77292,-0.02826 -1.15048,-0.112411 -0.083,-0.02837 -0.20734,-0.06098 -0.27654,-0.122338 -0.31109,-0.275865 -0.58245,-1.191064 -0.71299,-1.555316 -0.6344,-1.852858 -0.95041,-3.790862 -1.22411,-5.723699 -0.24511,-1.868972 -0.39326,-3.748707 -0.53162,-5.62802 -0.0487,-1.170953 -0.16137,-2.329597 -0.43198,-3.470439 -0.18988,-0.756436 -0.52771,-1.457 -0.93174,-2.119706 -0.24294,-0.308956 -0.44419,-0.787132 -0.845,-0.931568 -0.0718,-0.02587 -0.15055,-0.02499 -0.22582,-0.03748 -0.60233,0.361789 -1.23313,0.679913 -1.80697,1.085369 -0.0343,0.02423 -0.27468,0.631888 -0.2748,0.632207 -0.20269,0.548122 -0.33776,1.118367 -0.48487,1.68292 -0.43682,1.743151 -0.76148,3.511459 -1.0991,5.275683 -0.28184,1.506929 -0.5764,3.011382 -0.84944,4.519959 -0.17921,0.907045 -0.34351,1.816547 -0.47438,2.731842 -0.0975,0.768294 -0.1555,1.540975 -0.21213,2.313154 -0.0396,0.554924 -0.0687,1.110546 -0.0964,1.666171 -0.021,0.390938 -0.0309,0.782307 -0.0396,1.173665 -0.001,0.06251 -0.003,0.125013 -0.004,0.187521 0.0564,0.128175 1.8691,-0.669772 1.81267,-0.797949 v 0 c 0.001,-0.06213 0.003,-0.124254 0.004,-0.18638 0.01,-0.388081 0.0231,-0.776045 0.0399,-1.163881 0.0238,-0.551069 0.0508,-1.102024 0.0891,-1.65231 0.0533,-0.76336 0.11078,-1.527125 0.21813,-2.285164 0.13193,-0.907648 0.29472,-1.810009 0.4592,-2.712252 0.25949,-1.50274 0.53943,-3.00174 0.81705,-4.501217 0.33608,-1.761017 0.67115,-3.524605 1.13449,-5.2576 0.15673,-0.548544 0.29781,-1.112391 0.54207,-1.631106 0.0485,-0.103049 0.0998,-0.205764 0.16462,-0.299444 0.0479,-0.06918 0.24695,-0.221621 0.1709,-0.185671 -0.51567,0.24378 -1.00274,0.543957 -1.50412,0.815935 0.0231,-0.0395 0.0757,-0.192469 0.17101,-0.162092 0.19763,0.06297 0.46652,0.561514 0.59617,0.712599 0.38819,0.623541 0.70717,1.286402 0.88565,2.002478 0.26515,1.118272 0.36648,2.256495 0.43545,3.402445 0.15759,1.881967 0.31967,3.764665 0.56941,5.637068 0.28411,1.95825 0.60261,3.922313 1.22031,5.807853 0.19096,0.565232 0.38193,1.332116 0.79639,1.789734 0.12259,0.135353 0.19679,0.152837 0.3511,0.224134 0.39148,0.145016 0.80915,0.177795 1.22424,0.191998 0.40038,0.01622 0.80266,0.0358 1.19539,-0.06295 0.36149,-0.0846 0.70913,-0.213945 1.04642,-0.368949 1.06065,-0.491646 2.10574,-0.993447 3.07812,-1.661226 0.52728,-0.339137 1.04283,-0.710507 1.4009,-1.235866 0.30344,-0.519663 0.39096,-0.954638 0.12087,-1.516814 -0.29867,-0.513593 -0.72626,-0.89526 -1.22867,-1.20968 -0.62027,-0.399375 -1.26974,-0.744937 -1.92509,-1.083151 -0.5611,-0.303364 -1.16591,-0.605211 -1.56631,-1.116949 -0.18703,-0.286261 -0.29368,-0.575162 -0.25159,-0.92264 0.0302,-0.305141 0.0888,-0.612383 0.23979,-0.883107 0.0843,-0.137822 0.16653,-0.268055 0.29148,-0.373856 0.0397,-0.03362 0.17204,-0.116647 0.12649,-0.09149 -1.35271,0.747054 -2.0011,1.182952 -1.36399,0.759299 0.43261,-0.213183 0.90302,-0.166793 1.3677,-0.09121 0.64073,0.09216 1.28389,0.190952 1.90341,0.384132 0.54416,0.187603 1.06254,0.41972 1.51088,0.789461 0.20574,0.179745 0.5392,0.404112 0.54635,0.706745 0.0574,0.128863 1.87976,-0.682517 1.82239,-0.811379 z" />
    <path
       style="fill:#000000;fill-opacity:1;stroke:none;stroke-width:0.499999;stroke-miterlimit:4;stroke-dasharray:none;stroke-opacity:1"
       id="path223230"
       d="m 147.05799,30.169831 c -0.0991,-0.33818 -0.28735,-0.62298 -0.50834,-0.892836 -0.29963,-0.34548 -0.66687,-0.608044 -1.07496,-0.808323 -0.45719,-0.207418 -0.94578,-0.2378 -1.43873,-0.201864 -0.45982,0.05423 -0.90184,0.185856 -1.31984,0.3821 -0.59179,0.507146 -1.72257,0.78249 -2.28189,1.484794 -0.0823,0.103392 -0.19886,0.292447 -0.26971,0.403498 -0.24553,0.417809 -0.39428,0.879496 -0.5277,1.34244 -0.16007,0.628526 0.0507,0.901854 0.5639,1.248405 0.60412,0.313716 1.27349,0.466005 1.91846,0.672171 0.55568,0.154424 1.00386,0.465423 1.39502,0.879031 0.35152,0.414972 0.59662,0.901607 0.80212,1.401341 0.12722,0.373894 0.34393,0.732372 0.0973,1.095947 -0.61413,0.245345 -1.39594,0.863515 1.01567,-0.652878 0.0851,-0.05352 -0.18116,0.08763 -0.27436,0.125352 -0.23592,0.0955 -0.37847,0.130677 -0.62312,0.202533 -0.72458,0.19341 -1.47163,0.278167 -2.21551,0.35774 -0.66524,0.07375 -1.335,0.08966 -2.00373,0.09401 -0.47675,0.007 -0.95098,-0.03368 -1.41996,-0.116888 -0.38497,-0.09085 -0.79641,-0.137962 -1.12713,-0.367903 -0.46955,-0.509434 -0.53224,-1.264497 -0.63716,-1.918716 -0.19055,-1.162976 -0.21401,-2.339136 -0.21167,-3.514365 -5.3e-4,-1.259099 0.0517,-2.517193 0.0952,-3.775297 0.0367,-1.044239 0.0657,-2.088695 0.0888,-3.133314 0.0175,-0.764792 0.0327,-1.529632 0.0442,-2.294538 0.009,-0.558498 0.0144,-1.117043 0.0193,-1.67559 0.003,-0.456088 0.006,-0.912175 0.009,-1.368265 0.002,-0.336645 0.004,-0.673291 0.005,-1.009939 0.0131,-0.25098 -0.0138,-0.493507 -0.11265,-0.724849 -0.0449,-0.09711 -0.1137,-0.175763 -0.18516,-0.25355 -0.0772,-0.117834 -1.74362,0.973794 -1.66643,1.091628 v 0 c 0.0414,0.03084 0.0784,0.06037 0.10018,0.109125 0.0677,0.18644 0.0464,0.389199 0.0507,0.584026 -2e-5,0.335686 -1.7e-4,0.671373 -5.3e-4,1.00706 -7.9e-4,0.454944 -0.002,0.909893 -0.005,1.364829 -0.003,0.556804 -0.008,1.1136 -0.0133,1.670387 -0.009,0.761881 -0.0177,1.523763 -0.0314,2.285574 -0.0206,1.04138 -0.0459,2.082674 -0.0787,3.123743 -0.0398,1.261467 -0.0872,2.522876 -0.0872,3.78519 -8e-4,1.196022 0.036,2.391788 0.22792,3.57515 0.12128,0.762069 0.22074,1.58364 0.75193,2.184416 0.0613,0.05448 0.11743,0.115298 0.18379,0.163449 0.30574,0.221872 0.70799,0.252331 1.06035,0.353177 0.48448,0.110164 0.97669,0.178281 1.47481,0.173042 0.67943,0.0065 1.36089,-0.01167 2.03783,-0.07011 0.75553,-0.07362 1.51281,-0.152413 2.25636,-0.309636 1.25032,-0.305173 1.37021,-0.456891 2.83117,-1.339697 0.0745,-0.04501 0.13695,-0.110251 0.18937,-0.179715 0.0499,-0.06617 0.0755,-0.147582 0.11332,-0.221374 0.0943,-0.478581 -0.0353,-0.919999 -0.22774,-1.361327 -0.22816,-0.540382 -0.49792,-1.065577 -0.87441,-1.519682 -0.42237,-0.464952 -0.9022,-0.854001 -1.51363,-1.040632 -0.6185,-0.204597 -1.25596,-0.352952 -1.85897,-0.601221 -0.46163,-0.246711 -0.4564,-0.290362 -0.31438,-0.794149 0.13742,-0.429403 0.29715,-0.855345 0.56741,-1.221423 0.12672,-0.159874 0.14252,-0.193617 0.29312,-0.329729 0.51568,-0.466058 1.85478,-1.052237 -0.96001,0.482174 0.3724,-0.242774 0.77815,-0.407826 1.2179,-0.48592 0.43072,-0.09249 0.87384,-0.107493 1.29586,0.03863 0.37468,0.139136 0.69818,0.363185 0.9699,0.657759 0.1936,0.22596 0.34871,0.467273 0.4155,0.761484 0.0648,0.125235 1.83592,-0.791242 1.77111,-0.916477 z" />
    <text
       xml:space="preserve"
       style="font-style:normal;font-weight:normal;font-size:8.46667px;line-height:1.25;font-family:sans-serif;letter-spacing:0px;word-spacing:0px;fill:#000000;fill-opacity:1;stroke:none;stroke-width:0.264583"
       x="135.3661"
       y="45.886173"
       id="text237687"><tspan
         sodipodi:role="line"
         id="tspan237685"
         style="font-style:normal;font-variant:normal;font-weight:normal;font-stretch:normal;font-size:8.46667px;font-family:Cantarell;-inkscape-font-specification:'Cantarell, Normal';font-variant-ligatures:normal;font-variant-caps:normal;font-variant-numeric:normal;font-variant-east-asian:normal;stroke-width:0.264583"
         x="135.3661"
         y="45.886173">(si)</tspan></text>
    <path
       style="fill:#000000;fill-opacity:1;stroke:none;stroke-width:0.499999;stroke-miterlimit:4;stroke-dasharray:none;stroke-opacity:1"
       id="path238710"
       d="m 98.838563,29.231214 c 0.20421,0.01556 0.35921,0.0619 0.52246,0.187452 0.45886,0.408805 0.804237,0.921464 1.153007,1.422352 0.36691,0.544256 0.6772,1.123006 0.98335,1.702681 0.30175,0.588463 0.57682,1.189355 0.84692,1.792764 0.24322,0.553786 0.50232,1.100143 0.77004,1.642404 0.18596,0.365194 0.37551,0.728506 0.57165,1.088331 0.18383,0.346634 0.41048,0.666041 0.64351,0.980517 0.19349,0.254273 0.40891,0.490943 0.63343,0.717934 0.0985,0.09458 0.19915,0.186804 0.30017,0.278648 0.0779,0.116907 1.73123,-0.984834 1.65332,-1.101743 v 0 c -0.0977,-0.08459 -0.19124,-0.173366 -0.28865,-0.258292 -0.21391,-0.211031 -0.42043,-0.430061 -0.60612,-0.666654 -0.22316,-0.298575 -0.44267,-0.600049 -0.61553,-0.931715 -0.19293,-0.356166 -0.38406,-0.713298 -0.57123,-1.072536 -0.26944,-0.53526 -0.52835,-1.075568 -0.76817,-1.624878 -0.27409,-0.610986 -0.55573,-1.218178 -0.85944,-1.815158 -0.31432,-0.593394 -0.63403,-1.185463 -1.00809,-1.743971 -0.36693,-0.525373 -0.73085,-1.058929 -1.19009,-1.509806 -0.18503,-0.180551 -0.37415,-0.34962 -0.6433,-0.371975 -0.0908,-0.107992 -1.618007,1.175653 -1.527237,1.283645 z" />
    <path
       style="fill:#000000;fill-opacity:1;stroke:none;stroke-width:0.499999;stroke-miterlimit:4;stroke-dasharray:none;stroke-opacity:1"
       id="path238712"
       d="m 105.50942,28.52597 c -0.24536,0.29287 -0.46954,0.602787 -0.69849,0.908555 -0.39521,0.522015 -0.75105,1.071245 -1.10522,1.621409 -0.5255,0.829495 -1.00456,1.687317 -1.49071,2.540161 -0.56705,1.008732 -1.13321,2.01776 -1.6584,3.049056 -0.42941,0.820875 -0.817787,1.661716 -1.179297,2.514314 -0.28811,0.715375 -0.53798,1.445308 -0.7586,2.184067 -0.19497,0.629745 -0.36724,1.266322 -0.52334,1.906738 -0.13384,0.541499 -0.26842,1.082995 -0.39176,1.627026 -0.1083,0.469628 -0.22702,0.935916 -0.35433,1.400675 -0.10474,0.397113 -0.22149,0.792075 -0.36369,1.177534 -0.0813,0.27205 -0.19949,0.528963 -0.31395,0.787892 -0.0188,0.03006 -0.0377,0.06012 -0.0565,0.09017 0.0448,0.133244 1.92919,-0.500478 1.88438,-0.633725 v 0 c 0.0159,-0.0379 0.0317,-0.0758 0.0476,-0.113696 0.11328,-0.266486 0.20645,-0.540311 0.29803,-0.814888 0.12724,-0.396711 0.24564,-0.796171 0.34879,-1.199899 0.12639,-0.468899 0.2363,-0.941683 0.34679,-1.414549 0.12571,-0.540674 0.25468,-1.080651 0.38952,-1.619115 0.158597,-0.632741 0.332257,-1.261716 0.524677,-1.885053 0.22421,-0.724821 0.47637,-1.441538 0.76792,-2.142197 0.36208,-0.841785 0.75501,-1.669894 1.17582,-2.483998 0.52932,-1.022998 1.09079,-2.028671 1.65905,-3.030485 0.49004,-0.85136 0.98242,-1.702225 1.51846,-2.525746 0.35831,-0.544312 0.7267,-1.0819 1.12504,-1.597994 0.23855,-0.310734 0.48512,-0.615963 0.7137,-0.933868 -0.0416,-0.134739 -1.94705,0.452872 -1.9055,0.587611 z" />
    <path
       style="fill:#000000;fill-opacity:1;stroke:none;stroke-width:0.499999;stroke-miterlimit:4;stroke-dasharray:none;stroke-opacity:1"
       id="path238714"
       d="m 76.674039,28.784274 c -0.171611,0.207907 -0.383878,0.377876 -0.575431,0.568026 -0.340678,0.35646 -0.647626,0.7424 -0.953064,1.128911 -0.39652,0.536697 -0.787715,1.076315 -1.164979,1.626757 -0.451286,0.671697 -0.863624,1.369697 -1.263496,2.07305 -0.455481,0.765897 -0.861812,1.557972 -1.245206,2.36184 -0.394285,0.851715 -0.769517,1.712248 -1.118987,2.583304 -0.324093,0.836001 -0.674563,1.661269 -1.021619,2.487925 -0.282784,0.724074 -0.579075,1.442775 -0.902319,2.149761 -0.241269,0.529357 -0.482317,1.05909 -0.73678,1.582271 -0.187918,0.392642 -0.370602,0.788006 -0.565029,1.177491 -0.130302,0.330354 -0.308615,0.636858 -0.458777,0.957655 -0.129973,0.235891 -0.227928,0.489386 -0.400362,0.698317 0.0417,0.13417 1.939124,-0.455507 1.897428,-0.589674 v 0 c 0.13398,-0.245563 0.256945,-0.497102 0.380346,-0.748112 0.159597,-0.315204 0.304385,-0.636752 0.454978,-0.9563 0.186557,-0.392835 0.374824,-0.784862 0.558633,-1.179002 0.245549,-0.527153 0.488892,-1.05537 0.723702,-1.587415 0.312481,-0.71234 0.602882,-1.433658 0.891058,-2.156111 0.345128,-0.827714 0.691486,-1.654878 1.016929,-2.490607 0.354528,-0.862365 0.727339,-1.717532 1.127874,-2.559603 0.389916,-0.794435 0.806659,-1.574713 1.257972,-2.336199 0.405825,-0.693423 0.816644,-1.385441 1.278448,-2.043502 0.381537,-0.543047 0.772792,-1.079606 1.181851,-1.602306 0.308832,-0.375454 0.619054,-0.751737 0.977067,-1.082233 0.19051,-0.174837 0.380481,-0.37542 0.607187,-0.499107 -0.03075,-0.137703 -1.978174,0.297161 -1.947424,0.434863 z" />
    <path
       style="fill:#000000;fill-opacity:1;stroke:none;stroke-width:0.499999;stroke-miterlimit:4;stroke-dasharray:none;stroke-opacity:1"
       id="path238716"
       d="m 79.39842,37.203112 c -0.275553,-0.238508 -0.549752,-0.478665 -0.825725,-0.716732 -0.494512,-0.428929 -0.967267,-0.881581 -1.4374,-1.336805 -0.530505,-0.509727 -1.044434,-1.03637 -1.54732,-1.573268 -0.511826,-0.54076 -1.026028,-1.079119 -1.547849,-1.610257 -0.484852,-0.507177 -0.996294,-0.98703 -1.507723,-1.466926 -0.390372,-0.371044 -0.781791,-0.741191 -1.162328,-1.122365 -0.273653,-0.273945 -0.54859,-0.546399 -0.832869,-0.809363 -0.210777,-0.200033 -0.420317,-0.400834 -0.647639,-0.582086 -0.146886,-0.11802 -0.309597,-0.213146 -0.472054,-0.307531 -0.08299,-0.113284 -1.685086,1.060331 -1.602097,1.173615 v 0 c 0.149141,0.07752 0.296717,0.159554 0.434967,0.255418 0.223415,0.172146 0.433827,0.357823 0.634633,0.55617 0.284879,0.253982 0.555199,0.523214 0.828394,0.789522 0.384551,0.384262 0.781521,0.755896 1.176814,1.129038 0.509892,0.474157 1.022612,0.94543 1.502921,1.450208 0.520178,0.528219 1.0327,1.063588 1.543182,1.601168 0.50547,0.542846 1.021463,1.075936 1.556239,1.590074 0.47293,0.46155 0.947359,0.92142 1.441207,1.360713 0.272627,0.238522 0.544536,0.478467 0.806492,0.72862 0.07843,0.117247 1.736588,-0.991963 1.658155,-1.109213 z" />
    <path
       style="fill:#000000;fill-opacity:1;stroke:none;stroke-width:0.499999;stroke-miterlimit:4;stroke-dasharray:none;stroke-opacity:1"
       id="path238718"
       d="M 49.435903,37.420899 C 49.102885,37.141864 48.740456,36.901741 48.384522,36.653541 47.822508,36.272374 47.259138,35.893054 46.707175,35.497407 46.157331,35.114915 45.638835,34.69196 45.125229,34.262909 44.65508,33.871289 44.208432,33.452024 43.77424,33.021161 43.384564,32.629906 43.017595,32.21719 42.672827,31.78607 42.35002,31.397847 42.071323,30.976485 41.808825,30.545997 41.570594,30.166799 41.35829,29.772906 41.175137,29.364429 c -0.142263,-0.308695 -0.287901,-0.61582 -0.427844,-0.925579 -0.104503,-0.206076 -0.19826,-0.416671 -0.271852,-0.635711 -0.06572,-0.124355 -1.824325,0.805084 -1.758606,0.929436 v 0 c 0.08277,0.228489 0.182489,0.449598 0.293151,0.665983 0.142613,0.308014 0.288594,0.614428 0.43303,0.921588 0.193826,0.421098 0.413359,0.82939 0.66122,1.221399 0.271947,0.443947 0.557448,0.880943 0.891054,1.281663 0.353676,0.442796 0.727712,0.86868 1.12791,1.270344 0.439449,0.442026 0.895496,0.868627 1.373468,1.268857 0.520343,0.434734 1.039405,0.871315 1.598205,1.256821 0.549553,0.400206 1.11451,0.77902 1.675794,1.162513 0.344446,0.246102 0.707406,0.473363 1.01736,0.763233 0.07949,0.11652 1.727359,-1.007555 1.647876,-1.124077 z" />
    <path
       style="fill:#000000;fill-opacity:1;stroke:none;stroke-width:0.499999;stroke-miterlimit:4;stroke-dasharray:none;stroke-opacity:1"
       id="path238720"
       d="m 46.396398,28.067111 c -0.226851,0.360852 -0.475054,0.707699 -0.706813,1.065641 -0.427384,0.649668 -0.841041,1.307976 -1.244269,1.972887 -0.439481,0.744873 -0.908984,1.471369 -1.365557,2.205834 -0.447368,0.713184 -0.900308,1.422532 -1.361585,2.126797 -0.451615,0.694563 -0.917798,1.379347 -1.374439,2.070595 -0.45851,0.692398 -0.919753,1.382657 -1.36153,2.085943 -0.393055,0.628729 -0.793293,1.252829 -1.190239,1.879116 -0.371319,0.590238 -0.727821,1.189487 -1.092528,1.783815 -0.32561,0.538533 -0.644909,1.08109 -0.952683,1.630043 -0.221027,0.360775 -0.417573,0.735946 -0.612195,1.111342 -0.125857,0.260837 -0.229188,0.531469 -0.337196,0.799801 -0.08483,0.236929 -0.154863,0.48088 -0.175829,0.732134 -0.04044,0.293513 0.08737,0.55131 0.218271,0.803823 0.09484,0.156974 0.04537,0.08087 0.148119,0.228481 0.07258,0.120348 1.774571,-0.906159 1.701985,-1.026507 v 0 c -0.08402,-0.114461 -0.04382,-0.05489 -0.120216,-0.178967 -0.09857,-0.192217 -0.166333,-0.362339 -0.108823,-0.581313 0.05179,-0.219498 0.116742,-0.435631 0.209137,-0.641885 0.108083,-0.257291 0.204875,-0.519842 0.344726,-0.762648 0.197167,-0.368384 0.391604,-0.738068 0.605975,-1.09697 0.309065,-0.542536 0.621353,-1.083366 0.949526,-1.614638 0.362387,-0.593823 0.720434,-1.190369 1.092547,-1.778194 0.393861,-0.627186 0.799036,-1.24714 1.187296,-1.877856 0.444204,-0.698548 0.904923,-1.386157 1.361025,-2.076953 0.458803,-0.690485 0.924727,-1.376264 1.374068,-2.072999 0.460738,-0.70611 0.909966,-1.419448 1.356776,-2.134442 0.458105,-0.735404 0.926116,-1.464678 1.367888,-2.210131 0.406625,-0.661971 0.824671,-1.316995 1.258564,-1.961475 0.241277,-0.353592 0.478965,-0.710964 0.739841,-1.050345 -0.04024,-0.135189 -1.952082,0.433882 -1.911842,0.569071 z" />
    <path
       style="fill:#000000;fill-opacity:1;stroke:none;stroke-width:0.499999;stroke-miterlimit:4;stroke-dasharray:none;stroke-opacity:1"
       id="path254392"
       d="m 161.68688,71.193019 c 0.57181,0.5764 1.11486,1.180272 1.65231,1.788538 0.86646,1.016355 1.68259,2.074479 2.50889,3.123454 0.75384,0.950391 1.47609,1.925008 2.20596,2.893732 0.46197,0.61785 0.92162,1.23753 1.39005,1.850525 0.0522,0.06859 0.1044,0.137176 0.1566,0.205761 0.0726,0.118216 1.74441,-0.908285 1.67182,-1.026501 v 0 c -0.0537,-0.06814 -0.10733,-0.136279 -0.16099,-0.20442 -0.47969,-0.603933 -0.94913,-1.216009 -1.41841,-1.828025 -0.74111,-0.963877 -1.47041,-1.93693 -2.22759,-2.888353 -0.83199,-1.051835 -1.6525,-2.113237 -2.50611,-3.147607 -0.52814,-0.611336 -1.06652,-1.213639 -1.59036,-1.828652 -0.0751,-0.118949 -1.75723,0.942599 -1.68217,1.061548 z" />
    <path
       style="fill:#000000;fill-opacity:1;stroke:none;stroke-width:0.499999;stroke-miterlimit:4;stroke-dasharray:none;stroke-opacity:1"
       id="path254394"
       d="m 168.92765,70.914889 c -0.2683,0.382958 -0.53087,0.770334 -0.79093,1.159147 -0.48431,0.743302 -0.98659,1.474645 -1.47524,2.215079 -0.62321,0.952031 -1.21751,1.921647 -1.80095,2.898328 -0.58322,0.991494 -1.14483,1.995339 -1.69438,3.005798 -0.44421,0.840897 -0.89184,1.680099 -1.32222,2.528205 -0.32541,0.627775 -0.64887,1.256443 -0.96233,1.890274 -0.26801,0.547759 -0.49844,1.113194 -0.71096,1.68448 -0.20493,0.518491 -0.35907,1.054055 -0.52713,1.584965 -0.13993,0.467913 -0.27258,0.937927 -0.40341,1.408451 -0.0902,0.361604 -0.21108,0.714182 -0.31813,1.070843 -0.0483,0.136811 -0.0916,0.275244 -0.13448,0.413819 0.0491,0.131112 1.90328,-0.563203 1.85419,-0.694312 v 0 c 0.0438,-0.13852 0.0887,-0.276698 0.12966,-0.416078 0.10842,-0.356801 0.21319,-0.714624 0.3064,-1.075772 0.1294,-0.465894 0.25859,-0.931976 0.40161,-1.393915 0.16339,-0.525259 0.3305,-1.049483 0.53182,-1.561777 0.21771,-0.558718 0.4502,-1.112078 0.71997,-1.647973 0.31173,-0.629563 0.63318,-1.254218 0.94932,-1.881574 0.42796,-0.841679 0.86416,-1.679252 1.30892,-2.512166 0.54756,-1.004832 1.10491,-2.004515 1.69048,-2.987807 0.58643,-0.974913 1.19144,-1.938316 1.82161,-2.885665 0.49746,-0.739722 0.99753,-1.477695 1.49636,-2.216499 0.2731,-0.389922 0.54173,-0.78358 0.83804,-1.156489 -0.0403,-0.134932 -1.94857,0.435706 -1.90822,0.570638 z" />
    <path
       style="fill:#000000;fill-opacity:1;stroke:none;stroke-width:0.499999;stroke-miterlimit:4;stroke-dasharray:none;stroke-opacity:1"
       id="path254799"
       d="m 133.34157,71.460298 c 0.2524,0.321247 0.54923,0.604777 0.83915,0.891527 0.56798,0.555964 1.14381,1.10381 1.70788,1.663766 0.54053,0.52704 1.06367,1.071504 1.56568,1.635302 0.40162,0.458253 0.78373,0.93272 1.13914,1.427629 0.25577,0.373208 0.51875,0.742534 0.75009,1.131662 0.0167,0.04134 0.044,0.07986 0.0502,0.124018 0.0244,0.172183 -0.32146,0.552318 -0.41749,0.674696 -0.34499,0.423695 -0.72898,0.81067 -1.1092,1.201928 -0.39765,0.386191 -0.78898,0.779142 -1.19554,1.155999 -0.39582,0.367691 -0.7743,0.753734 -1.15645,1.135538 -0.39733,0.404448 -0.7617,0.838708 -1.12667,1.271953 -0.3745,0.447778 -0.72224,0.916503 -1.05593,1.395164 -0.309,0.45425 -0.60442,0.917464 -0.90365,1.378146 -0.26676,0.420788 -0.51404,0.853355 -0.77587,1.277114 -0.20864,0.337741 -0.40125,0.68484 -0.59836,1.029285 -0.17032,0.291626 -0.33228,0.587983 -0.50044,0.880819 -0.0827,0.163502 -0.16982,0.324427 -0.25473,0.486762 0.0444,0.132942 1.92446,-0.494604 1.88009,-0.627547 v 0 c 0.0836,-0.158536 0.16307,-0.319296 0.25382,-0.473993 0.16305,-0.294399 0.33203,-0.585451 0.49702,-0.878763 0.19239,-0.342517 0.39262,-0.680604 0.59627,-1.016537 0.2523,-0.424339 0.50333,-0.849569 0.77307,-1.263203 0.29756,-0.457168 0.58989,-0.917998 0.90632,-1.362541 0.33718,-0.46786 0.68884,-0.925041 1.0649,-1.362543 0.36388,-0.426921 0.73642,-0.846894 1.13659,-1.24047 0.38246,-0.380103 0.76533,-0.759891 1.16105,-1.126281 0.39993,-0.386233 0.79863,-0.773951 1.18763,-1.17122 0.38844,-0.401024 0.77209,-0.809773 1.10091,-1.262153 0.25643,-0.39797 0.43821,-0.762897 0.19129,-1.2198 -0.24274,-0.394872 -0.51559,-0.770102 -0.77992,-1.150597 -0.36489,-0.505134 -0.75352,-0.992153 -1.1669,-1.458637 -0.50937,-0.568423 -1.04051,-1.116793 -1.58953,-1.647087 -0.56177,-0.560546 -1.13553,-1.109027 -1.69061,-1.676249 -0.26583,-0.26339 -0.53405,-0.528875 -0.75718,-0.830395 -0.0712,-0.121811 -1.79385,0.884897 -1.72267,1.006708 z" />
    <text
       xml:space="preserve"
       style="font-style:normal;font-weight:normal;font-size:8.46667px;line-height:1.25;font-family:sans-serif;letter-spacing:0px;word-spacing:0px;fill:#000000;fill-opacity:1;stroke:none;stroke-width:0.264583"
       x="104.67443"
       y="88.219498"
       id="text12574"><tspan
         sodipodi:role="line"
         id="tspan12572"
         style="font-style:normal;font-variant:normal;font-weight:normal;font-stretch:normal;font-size:8.46667px;font-family:Cantarell;-inkscape-font-specification:'Cantarell, Normal';font-variant-ligatures:normal;font-variant-caps:normal;font-variant-numeric:normal;font-variant-east-asian:normal;stroke-width:0.264583"
         x="104.67443"
         y="88.219498">(fi)</tspan></text>
  </g>
  <g
     inkscape:groupmode="layer"
     id="layer3"
     inkscape:label="Layer 3">
    <path
       style="fill:none;fill-opacity:1;stroke:#60e155;stroke-width:0.5;stroke-miterlimit:4;stroke-dasharray:none;stroke-opacity:1;marker-end:url(#marker238995)"
       d="m 94.250297,27.166644 3.508366,5.704567"
       id="path238872" />
    <path
       style="fill:none;fill-opacity:1;stroke:#60e155;stroke-width:0.5;stroke-miterlimit:4;stroke-dasharray:none;stroke-opacity:1;marker-end:url(#marker238995)"
       d="m 110.74079,26.879568 -3.58082,5.903963"
       id="path238940" />
    <path
       style="fill:none;fill-opacity:1;stroke:#60e155;stroke-width:0.5;stroke-miterlimit:4;stroke-dasharray:none;stroke-opacity:1;marker-end:url(#marker238995)"
       d="m 83.559614,25.584996 -4.722529,6.231517"
       id="path238942" />
    <path
       style="fill:none;fill-opacity:1;stroke:#60e155;stroke-width:0.5;stroke-miterlimit:4;stroke-dasharray:none;stroke-opacity:1;marker-end:url(#marker238995)"
       d="m 80.417486,44.067944 -5.347369,-4.25092"
       id="path238944" />
    <path
       style="fill:none;fill-opacity:1;stroke:#60e155;stroke-width:0.5;stroke-miterlimit:4;stroke-dasharray:none;stroke-opacity:1;marker-end:url(#marker238995)"
       d="M 51.612032,43.722901 45.526118,39.368203"
       id="path238946" />
    <path
       style="fill:none;fill-opacity:1;stroke:#60e155;stroke-width:0.5;stroke-miterlimit:4;stroke-dasharray:none;stroke-opacity:1;marker-end:url(#marker238995)"
       d="m 51.777727,24.605606 -3.800867,6.99156"
       id="path238948" />
    <text
       xml:space="preserve"
       style="font-style:normal;font-weight:normal;font-size:8.46667px;line-height:1.25;font-family:sans-serif;letter-spacing:0px;word-spacing:0px;fill:#000000;fill-opacity:1;stroke:none;stroke-width:0.264583"
       x="182.46199"
       y="56.998684"
       id="text253073"><tspan
         sodipodi:role="line"
         id="tspan253071"
         style="font-style:normal;font-variant:normal;font-weight:normal;font-stretch:normal;font-size:8.46667px;font-family:Cantarell;-inkscape-font-specification:'Cantarell, Normal';font-variant-ligatures:normal;font-variant-caps:normal;font-variant-numeric:normal;font-variant-east-asian:normal;stroke-width:0.264583"
         x="182.46199"
         y="56.998684">(c)</tspan></text>
    <text
       xml:space="preserve"
       style="font-style:normal;font-weight:normal;font-size:8.46667px;line-height:1.25;font-family:sans-serif;letter-spacing:0px;word-spacing:0px;fill:#000000;fill-opacity:1;stroke:none;stroke-width:0.264583"
       x="161.2953"
       y="56.998684"
       id="text254956"><tspan
         sodipodi:role="line"
         id="tspan254954"
         style="font-style:normal;font-variant:normal;font-weight:normal;font-stretch:normal;font-size:8.46667px;font-family:Cantarell;-inkscape-font-specification:'Cantarell, Normal';font-variant-ligatures:normal;font-variant-caps:normal;font-variant-numeric:normal;font-variant-east-asian:normal;stroke-width:0.264583"
         x="161.2953"
         y="56.998684">a<tspan
   style="font-size:65%;baseline-shift:sub"
   id="tspan271972">1</tspan><tspan
   style="font-style:italic;font-size:65%;baseline-shift:sub"
   id="tspan265432">α</tspan></tspan></text>
    <text
       xml:space="preserve"
       style="font-style:normal;font-weight:normal;font-size:8.46667px;line-height:1.25;font-family:sans-serif;letter-spacing:0px;word-spacing:0px;fill:#000000;fill-opacity:1;stroke:none;stroke-width:0.264583"
       x="131.13275"
       y="56.998684"
       id="text924"><tspan
         sodipodi:role="line"
         id="tspan922"
         style="font-style:normal;font-variant:normal;font-weight:normal;font-stretch:normal;font-family:Cantarell;-inkscape-font-specification:'Cantarell, Normal';font-variant-ligatures:normal;font-variant-caps:normal;font-variant-numeric:normal;font-variant-east-asian:normal;baseline-shift:baseline;stroke-width:0.264583"
         x="131.13275"
         y="56.998684">a<tspan
   style="font-size:65%;baseline-shift:sub"
   id="tspan5684">1</tspan><tspan
   style="font-style:italic;font-size:65%;baseline-shift:sub"
   id="tspan1949">β</tspan></tspan></text>
    <text
       xml:space="preserve"
       style="font-style:normal;font-weight:normal;font-size:8.46667px;line-height:1.25;font-family:sans-serif;letter-spacing:0px;word-spacing:0px;fill:#000000;fill-opacity:1;stroke:none;stroke-width:0.264583"
       x="161.2953"
       y="14.665342"
       id="text228077"><tspan
         sodipodi:role="line"
         id="tspan228075"
         style="font-style:normal;font-variant:normal;font-weight:normal;font-stretch:normal;font-size:8.46667px;font-family:Cantarell;-inkscape-font-specification:'Cantarell, Normal';font-variant-ligatures:normal;font-variant-caps:normal;font-variant-numeric:normal;font-variant-east-asian:normal;stroke-width:0.264583"
         x="161.2953"
         y="14.665342">Bad</tspan></text>
    <text
       xml:space="preserve"
       style="font-style:normal;font-weight:normal;font-size:8.46667px;line-height:1.25;font-family:sans-serif;letter-spacing:0px;word-spacing:0px;fill:#000000;fill-opacity:1;stroke:none;stroke-width:0.264583"
       x="131.13283"
       y="14.665342"
       id="text236038"><tspan
         sodipodi:role="line"
         id="tspan236036"
         style="font-style:normal;font-variant:normal;font-weight:normal;font-stretch:normal;font-size:8.46667px;font-family:Cantarell;-inkscape-font-specification:'Cantarell, Normal';font-variant-ligatures:normal;font-variant-caps:normal;font-variant-numeric:normal;font-variant-east-asian:normal;stroke-width:0.264583"
         x="131.13283"
         y="14.665342">Good</tspan></text>
    <text
       xml:space="preserve"
       style="font-style:normal;font-weight:normal;font-size:8.46667px;line-height:1.25;font-family:sans-serif;letter-spacing:0px;word-spacing:0px;fill:#000000;fill-opacity:1;stroke:none;stroke-width:0.264583"
       x="182.46199"
       y="14.665342"
       id="text252407"><tspan
         sodipodi:role="line"
         id="tspan252405"
         style="font-style:normal;font-variant:normal;font-weight:normal;font-stretch:normal;font-size:8.46667px;font-family:Cantarell;-inkscape-font-specification:'Cantarell, Normal';font-variant-ligatures:normal;font-variant-caps:normal;font-variant-numeric:normal;font-variant-east-asian:normal;stroke-width:0.264583"
         x="182.46199"
         y="14.665342">(a)</tspan></text>
    <text
       xml:space="preserve"
       style="font-style:normal;font-weight:normal;font-size:8.46667px;line-height:1.25;font-family:sans-serif;letter-spacing:0px;word-spacing:0px;fill:#000000;fill-opacity:1;stroke:none;stroke-width:0.264583"
       x="103.08694"
       y="14.665342"
       id="text252753"><tspan
         sodipodi:role="line"
         id="tspan252751"
         style="font-style:normal;font-variant:normal;font-weight:normal;font-stretch:normal;font-size:8.46667px;font-family:Cantarell;-inkscape-font-specification:'Cantarell, Normal';font-variant-ligatures:normal;font-variant-caps:normal;font-variant-numeric:normal;font-variant-east-asian:normal;stroke-width:0.264583"
         x="103.08694"
         y="14.665342">(b)</tspan></text>
    <text
       xml:space="preserve"
       style="font-style:normal;font-weight:normal;font-size:8.46667px;line-height:1.25;font-family:sans-serif;letter-spacing:0px;word-spacing:0px;fill:#000000;fill-opacity:1;stroke:none;stroke-width:0.264583"
       x="108.37861"
       y="56.998684"
       id="text11228"><tspan
         sodipodi:role="line"
         id="tspan11226"
         style="font-style:normal;font-variant:normal;font-weight:normal;font-stretch:normal;font-size:8.46667px;font-family:Cantarell;-inkscape-font-specification:'Cantarell, Normal';font-variant-ligatures:normal;font-variant-caps:normal;font-variant-numeric:normal;font-variant-east-asian:normal;stroke-width:0.264583"
         x="108.37861"
         y="56.998684">(d)</tspan></text>
    <path
       style="fill:#000000;fill-opacity:1;stroke:none;stroke-width:0.7;stroke-miterlimit:4;stroke-dasharray:none;stroke-dashoffset:0;stroke-opacity:1"
       id="path12057"
       d="m 116.26404,70.999241 c -0.19301,0.206359 -0.36798,0.427381 -0.54143,0.650324 -0.37151,0.504997 -0.71353,1.030727 -1.06221,1.551517 -0.39873,0.601297 -0.78296,1.212141 -1.16889,1.821706 -0.36477,0.594247 -0.74519,1.178309 -1.14192,1.751661 -0.34695,0.532516 -0.73829,1.03282 -1.12123,1.539269 -0.28654,0.361757 -0.57734,0.720019 -0.87122,1.075878 -0.24213,0.270312 -0.45436,0.565028 -0.67673,0.851241 -0.161,0.201033 -0.3094,0.41361 -0.48205,0.604952 -0.0207,0.02763 -0.0413,0.05526 -0.062,0.08289 0.0785,0.267353 1.969,-0.287901 1.89048,-0.555255 v 0 c 0.0208,-0.02519 0.0416,-0.05036 0.0625,-0.07554 0.15175,-0.205346 0.31073,-0.405286 0.46136,-0.611521 0.21575,-0.286157 0.44523,-0.561014 0.67196,-0.838419 0.28474,-0.357511 0.56916,-0.715412 0.84196,-1.082186 0.37895,-0.507587 0.7477,-1.022411 1.09802,-1.550315 0.39073,-0.58016 0.76971,-1.167892 1.13615,-1.763737 0.38409,-0.607636 0.76833,-1.215347 1.17142,-1.810649 0.35402,-0.51993 0.7037,-1.045416 1.11137,-1.525596 0.18325,-0.20498 0.37158,-0.431024 0.62553,-0.549502 -0.0613,-0.274786 -2.0043,0.158499 -1.94303,0.433282 z" />
    <path
       style="fill:#000000;fill-opacity:1;stroke:none;stroke-width:0.7;stroke-miterlimit:4;stroke-dasharray:none;stroke-dashoffset:0;stroke-opacity:1"
       id="path12063"
       d="m 115.02386,69.544792 c -0.95898,0.446918 -1.77995,1.008052 -2.60183,1.63903 -0.53176,0.422431 -1.03176,0.881753 -1.51056,1.362797 -0.52699,0.556033 -1.04394,1.121868 -1.5464,1.700189 -0.47803,0.573974 -0.96022,1.144669 -1.4289,1.726353 -0.41677,0.514096 -0.82989,1.031256 -1.23567,1.554081 -0.36315,0.455049 -0.70884,0.923567 -1.05749,1.389692 -0.29057,0.380725 -0.57772,0.764032 -0.88666,1.13017 -0.11477,0.109789 -0.19019,0.274519 -0.31973,0.370343 -0.0271,0.02003 -0.12239,0.05546 -0.0936,0.03798 1.57779,-0.958357 1.34388,-1.492445 1.58975,-0.847436 0.003,0.01204 0.0207,0.04299 0.0102,0.03614 -0.0122,-0.008 -0.0125,-0.0264 -0.0166,-0.04034 -0.0116,-0.03921 -0.0221,-0.07881 -0.0306,-0.118827 -0.0516,-0.243847 -0.0819,-0.492027 -0.11381,-0.738938 -0.082,-0.719773 -0.11842,-1.443699 -0.15189,-2.167031 -0.0349,-0.807503 -0.0538,-1.615596 -0.0717,-2.42362 -0.0163,-0.857025 -0.0209,-1.714235 -0.0236,-2.571393 -2.7e-4,-0.748122 -0.005,-1.496221 -0.007,-2.244338 0.003,-0.707298 -0.003,-1.414566 -0.005,-2.121855 2.7e-4,-0.715026 -0.002,-1.430055 -2.6e-4,-2.145081 0.002,-0.676724 -0.002,-1.353444 0.003,-2.030163 0.0112,-0.532908 0.004,-1.065308 -0.0133,-1.597938 -0.0121,-0.349242 -0.0238,-0.698495 -0.0332,-1.047819 -0.001,-0.04706 -0.002,-0.09411 -0.003,-0.141166 -0.11433,-0.252261 -1.89808,0.556157 -1.78376,0.808419 v 0 c 0.002,0.04708 0.004,0.09416 0.006,0.141247 0.0156,0.347017 0.0343,0.693876 0.0536,1.040705 0.0262,0.523605 0.0339,1.047432 0.0335,1.571693 0.005,0.675627 0.002,1.351262 0.005,2.026897 0.003,0.71457 0.002,1.429146 0.004,2.14372 8e-4,0.707419 -0.003,1.414841 0.006,2.122236 0.004,0.747149 0.006,1.494298 0.0175,2.241389 0.0111,0.856924 0.0225,1.713841 0.0336,2.570768 0.0105,0.813588 0.0265,1.627097 0.0614,2.440069 0.0337,0.734063 0.0752,1.467874 0.14304,2.199688 0.0449,0.445167 0.0331,0.94729 0.34447,1.300959 0.0513,0.03667 0.097,0.137133 0.15387,0.109998 1.59041,-0.758267 1.40865,-0.632352 2.06639,-1.468419 0.2912,-0.377275 0.57764,-0.758082 0.86328,-1.139584 0.34238,-0.464754 0.69082,-0.924931 1.04858,-1.377985 0.40366,-0.517393 0.80952,-1.033105 1.2231,-1.542616 0.46897,-0.575643 0.94213,-1.148125 1.42704,-1.710423 0.50551,-0.570791 1.01688,-1.137615 1.55937,-1.673714 0.49156,-0.467678 0.99809,-0.921316 1.54898,-1.318943 0.65957,-0.472479 2.40817,-1.537732 -0.60603,0.26928 0.20735,0.189418 1.54675,-1.276794 1.33939,-1.466212 z" />
    <path
       style="fill:#000000;fill-opacity:1;stroke:none;stroke-width:0.7;stroke-miterlimit:4;stroke-dasharray:none;stroke-dashoffset:0;stroke-opacity:1"
       id="path12394"
       d="m 93.54423,70.891161 c -0.194625,0.240395 -0.422876,0.450469 -0.638074,0.672269 -0.372663,0.360812 -0.727816,0.739214 -1.082715,1.117365 -0.399865,0.447418 -0.773824,0.916117 -1.126387,1.401455 -0.367342,0.501066 -0.682429,1.036939 -1.003215,1.568196 -0.3165,0.539951 -0.640892,1.075201 -0.959647,1.613826 -0.282411,0.479528 -0.577794,0.951233 -0.881631,1.417434 -0.246851,0.386982 -0.516964,0.757153 -0.79031,1.125548 -0.195564,0.272476 -0.401889,0.535805 -0.63481,0.777425 0.07511,0.266777 1.961502,-0.264348 1.886389,-0.531122 v 0 c 0.211088,-0.26189 0.409734,-0.532712 0.604928,-0.806669 0.266372,-0.373928 0.524833,-0.753137 0.768077,-1.142654 0.296384,-0.471479 0.587688,-0.946046 0.867667,-1.427506 0.316442,-0.537292 0.633817,-1.074063 0.956172,-1.607831 0.319763,-0.524213 0.644771,-1.045641 1.017511,-1.534538 0.360521,-0.470852 0.734285,-0.931963 1.144913,-1.360535 0.360093,-0.378918 0.730131,-0.747964 1.103585,-1.113684 0.233778,-0.231616 0.461473,-0.469038 0.681133,-0.714 -0.07708,-0.270621 -1.990664,0.2744 -1.913586,0.545021 z" />
    <path
       style="fill:#000000;fill-opacity:1;stroke:none;stroke-width:0.7;stroke-miterlimit:4;stroke-dasharray:none;stroke-dashoffset:0;stroke-opacity:1"
       id="path12398"
       d="m 91.476609,69.568115 c -0.924644,0.241903 -1.689221,0.89382 -2.436778,1.46954 -0.452136,0.361112 -0.881031,0.750414 -1.301885,1.147197 -0.506709,0.462558 -0.972682,0.965324 -1.426443,1.47906 -0.523618,0.575464 -1.001291,1.190101 -1.476819,1.805221 -0.464918,0.614473 -0.924047,1.233262 -1.368229,1.862894 -0.405808,0.592333 -0.809011,1.186614 -1.210032,1.782238 -0.281395,0.410446 -0.559012,0.823455 -0.848921,1.227953 0.166274,-0.04485 -0.27804,0.234899 -0.199658,0.187904 0.520367,-0.311983 1.023168,-0.654404 1.556936,-0.942861 0.03198,-0.01728 0.05252,0.135361 0.04257,0.100399 -0.0094,-0.03319 -0.02074,-0.06583 -0.03112,-0.09874 -0.126961,-0.572386 -0.153567,-1.161947 -0.189371,-1.745538 -0.04483,-0.756825 -0.0641,-1.514811 -0.08018,-2.272691 -0.01601,-0.736889 -0.02254,-1.473933 -0.03179,-2.210925 0.0062,-0.777655 0.02003,-1.555215 0.03087,-2.332815 0.0076,-0.807048 0.02254,-1.613739 0.04698,-2.420453 0.0209,-0.791078 0.04205,-1.582151 0.05925,-2.373318 0.01215,-0.644287 0.025,-1.288566 0.03592,-1.932877 0.0067,-0.464079 0.01495,-0.928137 0.02254,-1.392203 0.003,-0.327213 0.0077,-0.654404 0.01153,-0.981607 -0.02487,-0.196455 0.04118,-0.409649 0.0011,-0.604522 -0.01003,-0.04858 -0.03174,-0.09399 -0.04762,-0.140981 -0.236736,-0.420304 -0.696671,-0.436195 -1.128302,-0.423799 -0.11602,0.01921 -0.233754,0.02996 -0.348057,0.0576 -0.960776,0.232352 -1.89611,0.780045 -2.749198,1.262349 -1.146992,0.590505 -2.215031,1.291989 -3.268871,2.026139 0.0566,0.247031 1.803368,-0.153196 1.746766,-0.400227 v 0 c 0.193802,-0.131636 0.385638,-0.266208 0.581403,-0.394904 0.687768,-0.452141 1.082979,-0.653804 -0.261234,0.10229 0.91739,-0.533627 1.853615,-1.081627 2.891102,-1.344022 0.173421,-0.02437 0.621456,-0.09302 0.782564,0.01206 0.0258,0.212744 -7.94e-4,0.429784 0.01035,0.643408 0.0013,0.324787 0.0032,0.649574 0.0024,0.974363 0.0016,0.460068 0.0032,0.920144 7.94e-4,1.380212 -0.0021,0.64004 -0.0043,1.280094 -0.01423,1.920073 -0.01106,0.78816 -0.02347,1.576335 -0.04879,2.364195 -0.0222,0.80871 -0.04439,1.617396 -0.04761,2.426473 -0.01241,0.78183 -0.03234,1.563608 -0.03584,2.345528 0.0063,0.738214 0.01902,1.476349 0.03646,2.214386 0.02035,0.762891 0.04147,1.525862 0.07906,2.288135 0.0364,0.621908 0.06126,1.250106 0.181676,1.862352 0.02236,0.06478 0.03694,0.132783 0.06707,0.194331 0.0083,0.01704 0.20416,0.360375 0.284861,0.322945 1.320697,-0.612577 1.407006,-0.534829 1.867646,-1.243423 0.270357,-0.407405 0.542679,-0.813514 0.810998,-1.222277 0.393396,-0.593309 0.786027,-1.187362 1.198568,-1.767628 0.444122,-0.622623 0.899345,-1.237298 1.364594,-1.84431 0.478279,-0.610248 0.968653,-1.211098 1.493803,-1.781985 0.462367,-0.503732 0.942366,-0.990449 1.450051,-1.448911 0.431441,-0.389154 0.866797,-0.775226 1.337546,-1.116954 0.130273,-0.09622 0.21857,-0.163812 0.351756,-0.253291 0.05187,-0.03485 0.212026,-0.132273 0.157792,-0.10123 -2.249451,1.287574 -1.856378,1.158762 -1.348698,0.750811 0.200472,0.197258 1.595292,-1.220293 1.394823,-1.41755 z" />
  </g>
  <g
     inkscape:groupmode="layer"
     id="layer4"
     inkscape:label="Layer 4">
    <text
       xml:space="preserve"
       style="font-style:normal;font-weight:normal;font-size:10.5833px;line-height:1.25;font-family:sans-serif;letter-spacing:0px;word-spacing:0px;fill:#60e155;fill-opacity:1;stroke:none;stroke-width:0.264583"
       x="92.149681"
       y="27.073694"
       id="text244340"><tspan
         sodipodi:role="line"
         id="tspan244338"
         style="font-style:normal;font-variant:normal;font-weight:normal;font-stretch:normal;font-size:3.52778px;font-family:Cantarell;-inkscape-font-specification:'Cantarell, Normal';font-variant-ligatures:normal;font-variant-caps:normal;font-variant-numeric:normal;font-variant-east-asian:normal;fill:#60e155;fill-opacity:1;stroke-width:0.264583"
         x="92.149681"
         y="27.073694">1</tspan></text>
    <text
       xml:space="preserve"
       style="font-style:normal;font-weight:normal;font-size:10.5833px;line-height:1.25;font-family:sans-serif;letter-spacing:0px;word-spacing:0px;fill:#60e155;fill-opacity:1;stroke:none;stroke-width:0.264583"
       x="111.18348"
       y="26.655071"
       id="text247886"><tspan
         sodipodi:role="line"
         id="tspan247884"
         style="font-style:normal;font-variant:normal;font-weight:normal;font-stretch:normal;font-size:3.52778px;font-family:Cantarell;-inkscape-font-specification:'Cantarell, Normal';font-variant-ligatures:normal;font-variant-caps:normal;font-variant-numeric:normal;font-variant-east-asian:normal;fill:#60e155;fill-opacity:1;stroke-width:0.264583"
         x="111.18348"
         y="26.655071">2</tspan></text>
    <text
       xml:space="preserve"
       style="font-style:normal;font-weight:normal;font-size:10.5833px;line-height:1.25;font-family:sans-serif;letter-spacing:0px;word-spacing:0px;fill:#60e155;fill-opacity:1;stroke:none;stroke-width:0.264583"
       x="84.944183"
       y="24.94009"
       id="text248537"><tspan
         sodipodi:role="line"
         id="tspan248535"
         style="font-style:normal;font-variant:normal;font-weight:normal;font-stretch:normal;font-size:3.52778px;font-family:Cantarell;-inkscape-font-specification:'Cantarell, Normal';font-variant-ligatures:normal;font-variant-caps:normal;font-variant-numeric:normal;font-variant-east-asian:normal;fill:#60e155;fill-opacity:1;stroke-width:0.264583"
         x="84.944183"
         y="24.94009">1</tspan></text>
    <text
       xml:space="preserve"
       style="font-style:normal;font-weight:normal;font-size:10.5833px;line-height:1.25;font-family:sans-serif;letter-spacing:0px;word-spacing:0px;fill:#60e155;fill-opacity:1;stroke:none;stroke-width:0.264583"
       x="81.039246"
       y="46.606346"
       id="text248541"><tspan
         sodipodi:role="line"
         id="tspan248539"
         style="font-style:normal;font-variant:normal;font-weight:normal;font-stretch:normal;font-size:3.52778px;font-family:Cantarell;-inkscape-font-specification:'Cantarell, Normal';font-variant-ligatures:normal;font-variant-caps:normal;font-variant-numeric:normal;font-variant-east-asian:normal;fill:#60e155;fill-opacity:1;stroke-width:0.264583"
         x="81.039246"
         y="46.606346">2</tspan></text>
    <text
       xml:space="preserve"
       style="font-style:normal;font-weight:normal;font-size:10.5833px;line-height:1.25;font-family:sans-serif;letter-spacing:0px;word-spacing:0px;fill:#60e155;fill-opacity:1;stroke:none;stroke-width:0.264583"
       x="51.79744"
       y="47.088821"
       id="text248598"><tspan
         sodipodi:role="line"
         id="tspan248596"
         style="font-style:normal;font-variant:normal;font-weight:normal;font-stretch:normal;font-size:3.52778px;font-family:Cantarell;-inkscape-font-specification:'Cantarell, Normal';font-variant-ligatures:normal;font-variant-caps:normal;font-variant-numeric:normal;font-variant-east-asian:normal;fill:#60e155;fill-opacity:1;stroke-width:0.264583"
         x="51.79744"
         y="47.088821">1</tspan></text>
    <text
       xml:space="preserve"
       style="font-style:normal;font-weight:normal;font-size:10.5833px;line-height:1.25;font-family:sans-serif;letter-spacing:0px;word-spacing:0px;fill:#60e155;fill-opacity:1;stroke:none;stroke-width:0.264583"
       x="52.613071"
       y="24.601204"
       id="text248602"><tspan
         sodipodi:role="line"
         id="tspan248600"
         style="font-style:normal;font-variant:normal;font-weight:normal;font-stretch:normal;font-size:3.52778px;font-family:Cantarell;-inkscape-font-specification:'Cantarell, Normal';font-variant-ligatures:normal;font-variant-caps:normal;font-variant-numeric:normal;font-variant-east-asian:normal;fill:#60e155;fill-opacity:1;stroke-width:0.264583"
         x="52.613071"
         y="24.601204">2</tspan></text>
    <path
       style="fill:none;stroke:#f043e1;stroke-width:0.7;stroke-miterlimit:4;stroke-dasharray:1.4, 0.7;stroke-dashoffset:0;stroke-opacity:1"
       d="m 135.0642,70.45359 h 15.6455"
       id="path7335"
       sodipodi:nodetypes="cc" />
    <path
       style="fill:none;stroke:#f043e1;stroke-width:0.7;stroke-miterlimit:4;stroke-dasharray:1.4, 0.7;stroke-dashoffset:0;stroke-opacity:1"
       d="m 163.63923,70.45359 h 15.6455"
       id="path10406"
       sodipodi:nodetypes="cc" />
    <g
       id="g11138">
      <path
         style="fill:none;stroke:#ff0000;stroke-width:0.693867;stroke-miterlimit:4;stroke-dasharray:none;stroke-dashoffset:0;stroke-opacity:1"
         d="m 167.57585,67.906226 5.50936,5.509354"
         id="path10568" />
      <path
         style="fill:none;stroke:#ff0000;stroke-width:0.710197;stroke-miterlimit:4;stroke-dasharray:none;stroke-dashoffset:0;stroke-opacity:1"
         d="m 173.07943,67.911995 -5.49781,5.497816"
         id="path10570" />
    </g>
  </g>
  <g
     inkscape:groupmode="layer"
     id="layer7"
     inkscape:label="Layer 5">
    <circle
       style="fill:#ff5600;fill-opacity:1;stroke:none;stroke-width:0.499999;stroke-miterlimit:4;stroke-dasharray:none;stroke-opacity:1"
       id="path248799"
       cx="95.022156"
       cy="46.523071"
       r="0.51911503" />
    <circle
       style="fill:#ff5600;fill-opacity:1;stroke:none;stroke-width:0.499999;stroke-miterlimit:4;stroke-dasharray:none;stroke-opacity:1"
       id="circle251100"
       cx="95.022156"
       cy="46.523071"
       r="0.51911503" />
    <use
       x="0"
       y="0"
       xlink:href="#circle251100"
       id="use251102"
       transform="translate(-28.515905,-19.333851)"
       width="100%"
       height="100%" />
    <use
       x="0"
       y="0"
       xlink:href="#use251102"
       id="use251104"
       transform="translate(-33.105596,19.749443)"
       width="100%"
       height="100%" />
    <circle
       style="fill:#00bcff;fill-opacity:1;stroke:none;stroke-width:0.499999;stroke-miterlimit:4;stroke-dasharray:none;stroke-opacity:1"
       id="circle251168"
       cx="79.705688"
       cy="26.708221"
       r="0.51911503" />
    <circle
       style="fill:#00bcff;fill-opacity:1;stroke:none;stroke-width:0.499999;stroke-miterlimit:4;stroke-dasharray:none;stroke-opacity:1"
       id="circle251467"
       cx="50.958164"
       cy="37.06543"
       r="0.51911503" />
  </g>
</svg>
