<?xml version="1.0" encoding="UTF-8" standalone="no"?>
<!-- Created with Inkscape (http://www.inkscape.org/) -->

<svg
   width="210mm"
   height="297mm"
   viewBox="0 0 793.7007874 1122.519685"
   version="1.1"
   id="svg2470"
   sodipodi:docname="template-small.svg"
   inkscape:version="1.1.1 (3bf5ae0d25, 2021-09-20)"
   xmlns:inkscape="http://www.inkscape.org/namespaces/inkscape"
   xmlns:sodipodi="http://sodipodi.sourceforge.net/DTD/sodipodi-0.dtd"
   xmlns:xlink="http://www.w3.org/1999/xlink"
   xmlns="http://www.w3.org/2000/svg"
   xmlns:svg="http://www.w3.org/2000/svg"
   xmlns:rdf="http://www.w3.org/1999/02/22-rdf-syntax-ns#"
   xmlns:cc="http://creativecommons.org/ns#"
   xmlns:dc="http://purl.org/dc/elements/1.1/">
  <defs
     id="defs2464" />
  <sodipodi:namedview
     id="base"
     pagecolor="#ffffff"
     bordercolor="#666666"
     borderopacity="1.0"
     inkscape:pageopacity="0.0"
     inkscape:pageshadow="2"
     inkscape:zoom="1.4"
     inkscape:cx="348.57143"
     inkscape:cy="102.5"
     inkscape:document-units="px"
     inkscape:current-layer="layer2"
     inkscape:pagecheckerboard="0"
     showgrid="false"
     inkscape:window-width="1920"
     inkscape:window-height="1024"
     inkscape:window-x="0"
     inkscape:window-y="0"
     inkscape:window-maximized="1" />
  <metadata
     id="metadata2467">
    <rdf:RDF>
      <cc:Work
         rdf:about="">
        <dc:format>image/svg+xml</dc:format>
        <dc:type
           rdf:resource="http://purl.org/dc/dcmitype/StillImage" />
      </cc:Work>
    </rdf:RDF>
  </metadata>
  <g
     inkscape:label="Layer 1"
     inkscape:groupmode="layer"
     id="layer1"
     sodipodi:insensitive="true">
    <g
       id="g5079"
       transform="matrix(1.7870755,0,0,1.7870755,436.2562,18.227252)">
      <path
         style="fill:none;fill-opacity:1;stroke:#b1f0ee;stroke-width:0.5;stroke-miterlimit:4;stroke-dasharray:none;stroke-opacity:1"
         d="M -224.51554,18.778496 H 193.50069"
         id="path5071"
         sodipodi:nodetypes="cc" />
      <path
         style="fill:none;fill-opacity:1;stroke:#b1f0ee;stroke-width:0.5;stroke-miterlimit:4;stroke-dasharray:2, 0.5;stroke-dashoffset:0;stroke-opacity:1"
         d="M -224.51554,28.183713 H 193.5007"
         id="path5073"
         sodipodi:nodetypes="cc" />
      <path
         style="fill:none;fill-opacity:1;stroke:#f6b7ab;stroke-width:0.5;stroke-miterlimit:4;stroke-dasharray:none;stroke-opacity:1"
         d="M -224.51554,38.130206 H 193.50069"
         id="path5075"
         sodipodi:nodetypes="cc" />
      <path
         style="fill:none;fill-opacity:1;stroke:#b1f0ee;stroke-width:0.5;stroke-miterlimit:4;stroke-dasharray:none;stroke-dashoffset:0;stroke-opacity:1"
         d="M -224.51554,47.785355 H 193.5007"
         id="path5077"
         sodipodi:nodetypes="cc" />
    </g>
    <use
       x="0"
       y="0"
       xlink:href="#g5079"
       id="use2772"
       transform="translate(0,80)"
       width="100%"
       height="100%" />
    <use
       x="0"
       y="0"
       xlink:href="#g5079"
       id="use2774"
       transform="translate(0,160)"
       width="100%"
       height="100%" />
    <use
       x="0"
       y="0"
       xlink:href="#use2772"
       id="use2776"
       transform="translate(0,160)"
       width="100%"
       height="100%" />
    <use
       x="0"
       y="0"
       xlink:href="#g5079"
       id="use2794"
       transform="translate(0,320)"
       width="100%"
       height="100%" />
    <use
       x="0"
       y="0"
       xlink:href="#use2772"
       id="use2796"
       transform="translate(0,320)"
       width="100%"
       height="100%" />
    <use
       x="0"
       y="0"
       xlink:href="#use2774"
       id="use2798"
       transform="translate(0,320)"
       width="100%"
       height="100%" />
    <use
       x="0"
       y="0"
       xlink:href="#use2776"
       id="use2800"
       transform="translate(0,320)"
       width="100%"
       height="100%" />
    <use
       x="0"
       y="0"
       xlink:href="#use2794"
       id="use2819"
       transform="translate(0,320)"
       width="100%"
       height="100%" />
    <use
       x="0"
       y="0"
       xlink:href="#use2796"
       id="use2821"
       transform="translate(0,320)"
       width="100%"
       height="100%" />
    <use
       x="0"
       y="0"
       xlink:href="#use2798"
       id="use2823"
       transform="translate(0,320)"
       width="100%"
       height="100%" />
    <use
       x="0"
       y="0"
       xlink:href="#use2800"
       id="use2825"
       transform="translate(0,320)"
       width="100%"
       height="100%" />
    <use
       x="0"
       y="0"
       xlink:href="#use2825"
       id="use2827"
       transform="translate(0,80)"
       width="100%"
       height="100%" />
    <use
       x="0"
       y="0"
       xlink:href="#use2827"
       id="use2829"
       width="100%"
       height="100%" />
  </g>
  <g
     inkscape:groupmode="layer"
     id="layer2"
     inkscape:label="Layer 2" />
</svg>
